<?xml version="1.0" encoding="UTF-8"?>
<!DOCTYPE svg PUBLIC "-//W3C//DTD SVG 1.1//EN" "http://www.w3.org/Graphics/SVG/1.1/DTD/svg11.dtd">
<!-- Creator: CorelDRAW 2018 (64 Bit) -->
<svg xmlns="http://www.w3.org/2000/svg" xml:space="preserve" width="80px" height="80px" version="1.1" style="shape-rendering:geometricPrecision; text-rendering:geometricPrecision; image-rendering:optimizeQuality; fill-rule:evenodd; clip-rule:evenodd"
viewBox="0 0 0.358 0.358"
 xmlns:xlink="http://www.w3.org/1999/xlink">
 <defs>
  <style type="text/css">
   <![CDATA[
    .fil0 {fill:#76C04E;fill-rule:nonzero}
   ]]>
  </style>
 </defs>
 <g id="Camada_x0020_1">
  <metadata id="CorelCorpID_0Corel-Layer"/>
  <g id="_1550637732896">
   <path class="fil0" d="M0.328 0l-0.298 0c-0.017,0 -0.03,0.013 -0.03,0.03l0 0.226c0,0.017 0.013,0.03 0.03,0.03l0.1 0 -0.004 0.036 -0.013 0c-0.01,0 -0.018,0.008 -0.018,0.018 0,0.01 0.008,0.018 0.018,0.018l0.132 0c0.009,0 0.017,-0.008 0.017,-0.018 0,-0.01 -0.008,-0.018 -0.017,-0.018l-0.013 0 -0.005 -0.036 0.101 0c0.016,0 0.03,-0.013 0.03,-0.03l0 -0.226c0,-0.017 -0.014,-0.03 -0.03,-0.03zm-0.298 0.012l0.298 0c0.01,0 0.018,0.008 0.018,0.018l0 0.018 -0.334 0 0 -0.018c0,-0.01 0.008,-0.018 0.018,-0.018zm0.316 0.048l0 0.167 -0.334 0 0 -0.167 0.334 0zm-0.096 0.28c0,0.003 -0.002,0.006 -0.005,0.006l-0.132 0c-0.003,0 -0.006,-0.003 -0.006,-0.006 0,-0.003 0.003,-0.006 0.006,-0.006l0.132 0c0.003,0 0.005,0.003 0.005,0.006zm-0.03 -0.018l-0.082 0 0.004 -0.036 0.073 0 0.005 0.036zm0.108 -0.048l-0.298 0c-0.01,0 -0.018,-0.008 -0.018,-0.018l0 -0.017 0.334 0 0 0.017c0,0.01 -0.008,0.018 -0.018,0.018z"/>
   <polygon class="fil0" points="0.31,0.262 0.322,0.262 0.322,0.25 0.31,0.25 "/>
   <polygon class="fil0" points="0.036,0.036 0.048,0.036 0.048,0.024 0.036,0.024 "/>
   <polygon class="fil0" points="0.06,0.036 0.072,0.036 0.072,0.024 0.06,0.024 "/>
   <polygon class="fil0" points="0.083,0.036 0.095,0.036 0.095,0.024 0.083,0.024 "/>
   <path class="fil0" d="M0.101 0.203l0.155 0c0.01,0 0.018,-0.008 0.018,-0.018l0 -0.084c0,-0.009 -0.008,-0.018 -0.018,-0.018l-0.155 0c-0.009,0 -0.018,0.009 -0.018,0.018l0 0.084c0,0.01 0.009,0.018 0.018,0.018zm0.05 -0.066l-0.056 0.037 0 -0.063 0.056 0.026zm0.105 0.054l-0.155 0c-0.002,0 -0.004,-0.001 -0.005,-0.003l0.068 -0.045 0.012 0.006c0.002,0 0.004,0 0.005,0l0.013 -0.006 0.068 0.045c-0.001,0.002 -0.003,0.003 -0.006,0.003zm-0.049 -0.054l0.055 -0.026 0 0.063 -0.055 -0.037zm-0.106 -0.042l0.155 0c0.002,0 0.004,0.001 0.005,0.003l-0.082 0.039 -0.082 -0.039c0.001,-0.002 0.002,-0.003 0.004,-0.003z"/>
  </g>
 </g>
</svg>
