<?xml version="1.0" encoding="UTF-8"?>
<!DOCTYPE svg PUBLIC "-//W3C//DTD SVG 1.1//EN" "http://www.w3.org/Graphics/SVG/1.1/DTD/svg11.dtd">
<!-- Creator: CorelDRAW 2018 (64 Bit) -->
<svg xmlns="http://www.w3.org/2000/svg" xml:space="preserve" width="371px" height="250px" version="1.1" style="shape-rendering:geometricPrecision; text-rendering:geometricPrecision; image-rendering:optimizeQuality; fill-rule:evenodd; clip-rule:evenodd"
viewBox="0 0 114.828 77.371"
 xmlns:xlink="http://www.w3.org/1999/xlink">
 <defs>
  <style type="text/css">
   <![CDATA[
    .fil2 {fill:#606062}
    .fil0 {fill:#606062}
    .fil1 {fill:#76C04E}
    .fil3 {fill:#606062;fill-rule:nonzero}
    .fil4 {fill:white;fill-rule:nonzero}
   ]]>
  </style>
 </defs>
 <g id="Camada_x0020_1">
  <metadata id="CorelCorpID_0Corel-Layer"/>
  <g id="_1433320777968">
   <rect class="fil0" transform="matrix(1.41793 -1.41793 1.41793 1.41793 36.5571 38.6857)" width="27.917" height="27.917" rx="1.079" ry="1.079"/>
   <rect class="fil1" transform="matrix(0.615482 -0.615482 0.615482 0.615482 17.8291 19.9576)" width="27.917" height="27.917" rx="2.486" ry="2.486"/>
   <path class="fil2" d="M32.636 14.243c0.312,-0.167 0.622,-0.282 0.928,-0.343 0.307,-0.061 0.561,-0.092 0.762,-0.092 0.2,0 0.312,0 0.334,0 2.466,0.045 4.178,0.134 5.137,0.268l-0.368 2.292 -4.417 0c-0.547,0 -0.87,0.218 -0.971,0.653 -0.011,0.067 -0.028,0.162 -0.05,0.284l-0.201 1.339 4.451 0.184 -0.368 2.259 -4.501 0.151 -0.234 1.439c-0.067,0.424 0.011,0.68 0.234,0.77 0.167,0.066 0.39,0.1 0.669,0.1l4.267 0 -0.368 2.276c-0.792,0.1 -2.158,0.184 -4.1,0.251l-0.97 0.033c-0.056,0 -0.148,0 -0.276,0 -0.128,0 -0.304,-0.017 -0.527,-0.05 -0.223,-0.033 -0.469,-0.112 -0.737,-0.234 -0.736,-0.346 -1.104,-0.971 -1.104,-1.874 0,-0.179 0.011,-0.369 0.033,-0.569l1.122 -7.028c0.167,-1.06 0.585,-1.763 1.255,-2.109z"/>
   <rect class="fil1" transform="matrix(0.615482 -0.615482 0.615482 0.615482 -0.899046 38.6857)" width="27.917" height="27.917" rx="2.486" ry="2.486"/>
   <path class="fil3" d="M18.055 32.569c0.668,0 1.24,0.123 1.713,0.368 0.474,0.245 0.838,0.568 1.095,0.969 0.456,0.747 0.685,1.76 0.685,3.042 0,0.624 -0.061,1.348 -0.184,2.172 -0.423,2.774 -1.281,4.501 -2.574,5.181 -0.646,0.334 -1.465,0.501 -2.456,0.501l-5.315 0c0.878,-5.54 1.068,-6.738 1.939,-12.233 0,0 1.699,0 5.097,0zm-3.927 9.86l2.139 0c0.646,0 1.153,-0.306 1.521,-0.919 0.367,-0.613 0.651,-1.543 0.852,-2.791 0.122,-0.913 0.184,-1.59 0.184,-2.03 0,-0.44 -0.064,-0.791 -0.192,-1.053 -0.129,-0.262 -0.296,-0.443 -0.502,-0.543 -0.206,-0.101 -0.47,-0.151 -0.794,-0.151l-2.022 0c-0.587,3.709 -0.627,3.959 -1.186,7.487z"/>
   <rect class="fil1" transform="matrix(0.615482 -0.615482 0.615482 0.615482 17.8291 57.4138)" width="27.917" height="27.917" rx="2.486" ry="2.486"/>
   <path class="fil2" d="M31.958 52.636c0.401,-0.507 0.898,-0.878 1.489,-1.112 0.591,-0.235 1.339,-0.352 2.242,-0.352 0.904,0 1.649,0.045 2.234,0.134 0.586,0.089 1.219,0.257 1.9,0.502l-0.352 2.142c-1.528,-0.19 -2.688,-0.285 -3.48,-0.285 -0.012,0 -0.026,0 -0.042,0 -0.017,0 -0.078,0 -0.184,0 -0.106,0 -0.204,0.003 -0.293,0.009 -0.089,0.005 -0.212,0.019 -0.368,0.042 -0.157,0.022 -0.276,0.053 -0.36,0.092 -0.084,0.039 -0.19,0.103 -0.318,0.192 -0.128,0.089 -0.231,0.195 -0.31,0.318 -0.078,0.123 -0.17,0.279 -0.276,0.469 -0.517,0.926 -1.051,4.66 -0.728,5.522 0.223,0.546 0.765,0.831 1.624,0.853 0.067,0 0.34,0 0.82,0 0.479,0 1.416,-0.05 2.811,-0.151l-0.335 2.142c-0.591,0.212 -1.171,0.349 -1.74,0.41 -0.569,0.062 -1.102,0.092 -1.598,0.092 -0.497,0 -0.856,0 -1.08,0 -0.758,-0.011 -1.391,-0.184 -1.899,-0.518 -0.507,-0.335 -0.873,-0.798 -1.096,-1.389 -0.279,-0.737 -0.418,-1.523 -0.418,-2.36 0,-0.076 0.615,-4.423 0.795,-4.944 0.24,-0.698 0.56,-1.3 0.962,-1.808z"/>
   <path class="fil4" d="M57.821 38.741c0,0.581 -0.165,1.026 -0.495,1.336 -0.332,0.309 -0.809,0.464 -1.434,0.464l-0.999 0 0 -3.532 1.108 0c0.576,0 1.024,0.152 1.343,0.457 0.318,0.304 0.477,0.729 0.477,1.275zm-0.777 0.019c0,-0.759 -0.335,-1.138 -1.004,-1.138l-0.399 0 0 2.3 0.322 0c0.721,0 1.081,-0.387 1.081,-1.162z"/>
   <path id="1" class="fil4" d="M59.615 38.315c-0.156,0 -0.278,0.049 -0.367,0.148 -0.089,0.099 -0.14,0.239 -0.153,0.421l1.035 0c-0.004,-0.182 -0.051,-0.322 -0.143,-0.421 -0.091,-0.099 -0.216,-0.148 -0.372,-0.148zm0.104 2.275c-0.435,0 -0.775,-0.12 -1.02,-0.36 -0.245,-0.24 -0.367,-0.58 -0.367,-1.019 0,-0.453 0.113,-0.802 0.339,-1.05 0.227,-0.247 0.539,-0.371 0.939,-0.371 0.382,0 0.679,0.109 0.892,0.326 0.212,0.218 0.319,0.517 0.319,0.9l0 0.357 -1.742 0c0.008,0.21 0.07,0.374 0.185,0.492 0.116,0.118 0.279,0.176 0.489,0.176 0.162,0 0.316,-0.017 0.462,-0.051 0.144,-0.034 0.296,-0.087 0.454,-0.162l0 0.571c-0.13,0.064 -0.267,0.113 -0.414,0.144 -0.146,0.032 -0.325,0.047 -0.536,0.047z"/>
   <path id="2" class="fil4" d="M63.302 39.739c0,0.277 -0.096,0.488 -0.288,0.634 -0.193,0.145 -0.48,0.217 -0.864,0.217 -0.196,0 -0.363,-0.013 -0.502,-0.039 -0.138,-0.028 -0.268,-0.066 -0.389,-0.118l0 -0.609c0.137,0.065 0.291,0.118 0.463,0.162 0.171,0.044 0.322,0.065 0.452,0.065 0.268,0 0.402,-0.077 0.402,-0.233 0,-0.057 -0.018,-0.104 -0.054,-0.14 -0.035,-0.037 -0.096,-0.078 -0.183,-0.124 -0.087,-0.045 -0.203,-0.099 -0.348,-0.161 -0.208,-0.086 -0.36,-0.167 -0.457,-0.241 -0.098,-0.075 -0.168,-0.16 -0.213,-0.255 -0.044,-0.097 -0.066,-0.215 -0.066,-0.355 0,-0.239 0.092,-0.424 0.279,-0.555 0.185,-0.132 0.449,-0.197 0.79,-0.197 0.326,0 0.642,0.071 0.949,0.212l-0.221 0.53c-0.136,-0.057 -0.262,-0.105 -0.38,-0.142 -0.117,-0.037 -0.237,-0.055 -0.359,-0.055 -0.218,0 -0.327,0.058 -0.327,0.176 0,0.066 0.036,0.124 0.106,0.171 0.07,0.049 0.223,0.121 0.46,0.216 0.21,0.085 0.365,0.165 0.463,0.24 0.098,0.074 0.171,0.159 0.218,0.255 0.046,0.097 0.069,0.213 0.069,0.346z"/>
   <path id="3" class="fil4" d="M64.996 38.315c-0.156,0 -0.278,0.049 -0.367,0.148 -0.089,0.099 -0.14,0.239 -0.153,0.421l1.035 0c-0.004,-0.182 -0.05,-0.322 -0.143,-0.421 -0.091,-0.099 -0.216,-0.148 -0.372,-0.148zm0.104 2.275c-0.435,0 -0.775,-0.12 -1.02,-0.36 -0.244,-0.24 -0.366,-0.58 -0.366,-1.019 0,-0.453 0.113,-0.802 0.338,-1.05 0.227,-0.247 0.54,-0.371 0.939,-0.371 0.382,0 0.679,0.109 0.892,0.326 0.212,0.218 0.319,0.517 0.319,0.9l0 0.357 -1.742 0c0.008,0.21 0.07,0.374 0.185,0.492 0.116,0.118 0.28,0.176 0.489,0.176 0.162,0 0.317,-0.017 0.462,-0.051 0.144,-0.034 0.296,-0.087 0.454,-0.162l0 0.571c-0.129,0.064 -0.267,0.113 -0.414,0.144 -0.146,0.032 -0.325,0.047 -0.536,0.047z"/>
   <path id="4" class="fil4" d="M69.292 40.541l-0.737 0 0 -1.577c0,-0.195 -0.035,-0.342 -0.104,-0.439 -0.07,-0.097 -0.179,-0.146 -0.331,-0.146 -0.205,0 -0.354,0.068 -0.446,0.206 -0.091,0.138 -0.138,0.366 -0.138,0.685l0 1.271 -0.736 0 0 -2.701 0.563 0 0.098 0.346 0.042 0c0.082,-0.13 0.195,-0.229 0.339,-0.296 0.144,-0.067 0.308,-0.1 0.491,-0.1 0.314,0 0.552,0.085 0.715,0.255 0.162,0.17 0.244,0.415 0.244,0.736l0 1.76z"/>
   <path id="5" class="fil4" d="M70.694 40.541l-1.03 -2.701 0.771 0 0.522 1.539c0.058,0.195 0.094,0.379 0.109,0.553l0.014 0c0.008,-0.155 0.044,-0.339 0.109,-0.553l0.52 -1.539 0.77 0 -1.029 2.701 -0.756 0z"/>
   <path id="6" class="fil4" d="M73.452 39.185c0,0.267 0.043,0.469 0.131,0.606 0.088,0.137 0.231,0.206 0.429,0.206 0.196,0 0.337,-0.068 0.423,-0.204 0.086,-0.136 0.129,-0.339 0.129,-0.608 0,-0.267 -0.043,-0.467 -0.13,-0.601 -0.087,-0.133 -0.23,-0.2 -0.427,-0.2 -0.197,0 -0.338,0.067 -0.425,0.199 -0.087,0.133 -0.13,0.334 -0.13,0.602zm1.865 0.002c0,0.439 -0.115,0.783 -0.347,1.031 -0.231,0.248 -0.554,0.372 -0.968,0.372 -0.259,0 -0.488,-0.057 -0.686,-0.17 -0.198,-0.113 -0.35,-0.277 -0.456,-0.489 -0.107,-0.213 -0.159,-0.461 -0.159,-0.744 0,-0.442 0.114,-0.785 0.344,-1.03 0.231,-0.245 0.554,-0.367 0.972,-0.367 0.258,0 0.487,0.056 0.685,0.169 0.198,0.113 0.35,0.275 0.456,0.486 0.107,0.211 0.159,0.458 0.159,0.742z"/>
   <polygon id="7" class="fil4" points="76.664,40.541 75.928,40.541 75.928,36.781 76.664,36.781 "/>
   <path id="8" class="fil4" d="M78.08 40.541l-1.03 -2.701 0.771 0 0.522 1.539c0.058,0.195 0.094,0.379 0.109,0.553l0.014 0c0.008,-0.155 0.044,-0.339 0.109,-0.553l0.52 -1.539 0.77 0 -1.029 2.701 -0.756 0z"/>
   <path id="9" class="fil4" d="M80.22 37.141c0,-0.24 0.133,-0.36 0.4,-0.36 0.267,0 0.401,0.12 0.401,0.36 0,0.114 -0.033,0.203 -0.1,0.267 -0.067,0.063 -0.167,0.095 -0.301,0.095 -0.267,0 -0.4,-0.121 -0.4,-0.362zm0.767 3.4l-0.736 0 0 -2.701 0.736 0 0 2.701z"/>
   <path id="10" class="fil4" d="M84.179 40.541l-0.737 0 0 -1.577c0,-0.195 -0.034,-0.342 -0.099,-0.439 -0.065,-0.097 -0.167,-0.146 -0.307,-0.146 -0.189,0 -0.326,0.069 -0.411,0.208 -0.085,0.138 -0.128,0.366 -0.128,0.683l0 1.271 -0.737 0 0 -2.701 0.563 0 0.099 0.346 0.041 0c0.072,-0.124 0.177,-0.221 0.314,-0.291 0.137,-0.07 0.294,-0.105 0.472,-0.105 0.404,0 0.677,0.132 0.821,0.396l0.065 0c0.072,-0.125 0.179,-0.222 0.32,-0.292 0.141,-0.069 0.3,-0.104 0.477,-0.104 0.306,0 0.538,0.079 0.694,0.236 0.158,0.157 0.236,0.408 0.236,0.755l0 1.76 -0.74 0 0 -1.577c0,-0.195 -0.032,-0.342 -0.097,-0.439 -0.066,-0.097 -0.168,-0.146 -0.308,-0.146 -0.181,0 -0.315,0.064 -0.405,0.193 -0.089,0.129 -0.133,0.334 -0.133,0.613l0 1.356z"/>
   <path id="11" class="fil4" d="M87.737 38.315c-0.157,0 -0.279,0.049 -0.368,0.148 -0.088,0.099 -0.139,0.239 -0.152,0.421l1.034 0c-0.003,-0.182 -0.05,-0.322 -0.142,-0.421 -0.092,-0.099 -0.216,-0.148 -0.372,-0.148zm0.104 2.275c-0.436,0 -0.775,-0.12 -1.02,-0.36 -0.245,-0.24 -0.367,-0.58 -0.367,-1.019 0,-0.453 0.113,-0.802 0.339,-1.05 0.226,-0.247 0.539,-0.371 0.939,-0.371 0.382,0 0.678,0.109 0.891,0.326 0.213,0.218 0.319,0.517 0.319,0.9l0 0.357 -1.742 0c0.008,0.21 0.07,0.374 0.186,0.492 0.116,0.118 0.279,0.176 0.488,0.176 0.163,0 0.317,-0.017 0.462,-0.051 0.144,-0.034 0.296,-0.087 0.454,-0.162l0 0.571c-0.129,0.064 -0.267,0.113 -0.413,0.144 -0.146,0.032 -0.325,0.047 -0.536,0.047z"/>
   <path id="12" class="fil4" d="M92.032 40.541l-0.737 0 0 -1.577c0,-0.195 -0.035,-0.342 -0.104,-0.439 -0.069,-0.097 -0.179,-0.146 -0.33,-0.146 -0.206,0 -0.355,0.068 -0.446,0.206 -0.092,0.138 -0.138,0.366 -0.138,0.685l0 1.271 -0.736 0 0 -2.701 0.562 0 0.099 0.346 0.041 0c0.083,-0.13 0.196,-0.229 0.34,-0.296 0.143,-0.067 0.307,-0.1 0.49,-0.1 0.314,0 0.553,0.085 0.715,0.255 0.163,0.17 0.244,0.415 0.244,0.736l0 1.76z"/>
   <path id="13" class="fil4" d="M93.928 40.002c0.13,0 0.284,-0.028 0.464,-0.085l0 0.549c-0.183,0.083 -0.408,0.124 -0.676,0.124 -0.295,0 -0.509,-0.074 -0.643,-0.223 -0.135,-0.149 -0.202,-0.373 -0.202,-0.671l0 -1.302 -0.352 0 0 -0.313 0.405 -0.246 0.213 -0.57 0.471 0 0 0.575 0.756 0 0 0.554 -0.756 0 0 1.301c0,0.105 0.029,0.182 0.088,0.232 0.058,0.05 0.136,0.075 0.232,0.075z"/>
   <path id="14" class="fil4" d="M95.525 39.185c0,0.267 0.044,0.469 0.131,0.606 0.089,0.137 0.231,0.206 0.429,0.206 0.196,0 0.337,-0.068 0.424,-0.204 0.086,-0.136 0.128,-0.339 0.128,-0.608 0,-0.267 -0.042,-0.467 -0.13,-0.601 -0.086,-0.133 -0.229,-0.2 -0.427,-0.2 -0.196,0 -0.338,0.067 -0.425,0.199 -0.087,0.133 -0.13,0.334 -0.13,0.602zm1.866 0.002c0,0.439 -0.115,0.783 -0.347,1.031 -0.232,0.248 -0.555,0.372 -0.969,0.372 -0.259,0 -0.487,-0.057 -0.686,-0.17 -0.198,-0.113 -0.349,-0.277 -0.456,-0.489 -0.106,-0.213 -0.159,-0.461 -0.159,-0.744 0,-0.442 0.115,-0.785 0.345,-1.03 0.231,-0.245 0.554,-0.367 0.971,-0.367 0.259,0 0.487,0.056 0.686,0.169 0.198,0.113 0.35,0.275 0.456,0.486 0.106,0.211 0.159,0.458 0.159,0.742z"/>
   <polygon class="fil4" points="64.598,24.335 62.564,24.335 62.564,20.803 64.598,20.803 64.598,21.416 63.313,21.416 63.313,22.193 64.508,22.193 64.508,22.806 63.313,22.806 63.313,23.716 64.598,23.716 "/>
   <path id="1" class="fil4" d="M67.768 24.335l-0.737 0 0 -1.577c0,-0.195 -0.034,-0.342 -0.104,-0.439 -0.069,-0.097 -0.179,-0.146 -0.33,-0.146 -0.206,0 -0.355,0.068 -0.446,0.206 -0.092,0.138 -0.138,0.366 -0.138,0.685l0 1.271 -0.736 0 0 -2.701 0.562 0 0.099 0.346 0.041 0c0.083,-0.13 0.196,-0.229 0.34,-0.296 0.143,-0.067 0.307,-0.1 0.49,-0.1 0.314,0 0.553,0.085 0.715,0.255 0.163,0.17 0.244,0.415 0.244,0.735l0 1.761z"/>
   <path id="2" class="fil4" d="M70.878 21.634l0 0.376 -0.423 0.109c0.078,0.12 0.116,0.255 0.116,0.405 0,0.29 -0.101,0.515 -0.303,0.678 -0.202,0.161 -0.483,0.242 -0.842,0.242l-0.133 -0.007 -0.108 -0.012c-0.076,0.058 -0.114,0.122 -0.114,0.193 0,0.107 0.135,0.159 0.405,0.159l0.46 0c0.296,0 0.522,0.064 0.677,0.191 0.155,0.128 0.234,0.314 0.234,0.56 0,0.315 -0.132,0.559 -0.395,0.733 -0.264,0.174 -0.642,0.261 -1.135,0.261 -0.376,0 -0.664,-0.065 -0.863,-0.196 -0.199,-0.131 -0.298,-0.315 -0.298,-0.552 0,-0.162 0.05,-0.298 0.151,-0.407 0.102,-0.11 0.251,-0.188 0.447,-0.234 -0.076,-0.033 -0.142,-0.085 -0.198,-0.159 -0.056,-0.073 -0.085,-0.151 -0.085,-0.233 0,-0.103 0.031,-0.189 0.09,-0.257 0.06,-0.069 0.146,-0.135 0.258,-0.201 -0.141,-0.062 -0.254,-0.16 -0.336,-0.296 -0.083,-0.135 -0.124,-0.294 -0.124,-0.478 0,-0.294 0.095,-0.522 0.286,-0.683 0.192,-0.161 0.466,-0.242 0.822,-0.242 0.075,0 0.165,0.007 0.269,0.02 0.104,0.013 0.171,0.023 0.2,0.03l0.942 0zm-2.085 3.082c0,0.102 0.049,0.182 0.146,0.239 0.098,0.058 0.234,0.087 0.41,0.087 0.263,0 0.47,-0.036 0.62,-0.109 0.151,-0.072 0.226,-0.171 0.226,-0.296 0,-0.101 -0.045,-0.171 -0.133,-0.21 -0.089,-0.039 -0.226,-0.058 -0.412,-0.058l-0.381 0c-0.136,0 -0.248,0.032 -0.339,0.096 -0.092,0.063 -0.137,0.147 -0.137,0.251zm0.268 -2.198c0,0.146 0.034,0.263 0.1,0.348 0.067,0.085 0.17,0.128 0.306,0.128 0.139,0 0.24,-0.043 0.305,-0.128 0.064,-0.085 0.096,-0.202 0.096,-0.348 0,-0.326 -0.134,-0.488 -0.401,-0.488 -0.271,0 -0.406,0.162 -0.406,0.488z"/>
   <path id="3" class="fil4" d="M72.441 22.109c-0.157,0 -0.279,0.049 -0.368,0.148 -0.088,0.099 -0.139,0.239 -0.152,0.421l1.035 0c-0.004,-0.182 -0.051,-0.322 -0.143,-0.421 -0.092,-0.099 -0.216,-0.148 -0.372,-0.148zm0.104 2.275c-0.435,0 -0.775,-0.12 -1.02,-0.36 -0.245,-0.24 -0.367,-0.58 -0.367,-1.019 0,-0.453 0.113,-0.802 0.339,-1.05 0.227,-0.247 0.539,-0.371 0.939,-0.371 0.382,0 0.679,0.109 0.891,0.326 0.213,0.218 0.319,0.517 0.319,0.9l0 0.357 -1.742 0c0.009,0.21 0.07,0.374 0.186,0.492 0.116,0.117 0.279,0.176 0.489,0.176 0.162,0 0.316,-0.017 0.461,-0.051 0.145,-0.034 0.296,-0.087 0.455,-0.162l0 0.571c-0.13,0.064 -0.267,0.113 -0.414,0.144 -0.146,0.031 -0.325,0.047 -0.536,0.047z"/>
   <path id="4" class="fil4" d="M76.736 24.335l-0.737 0 0 -1.577c0,-0.195 -0.034,-0.342 -0.103,-0.439 -0.07,-0.097 -0.179,-0.146 -0.331,-0.146 -0.205,0 -0.355,0.068 -0.446,0.206 -0.092,0.138 -0.138,0.366 -0.138,0.685l0 1.271 -0.736 0 0 -2.701 0.562 0 0.099 0.346 0.041 0c0.083,-0.13 0.196,-0.229 0.34,-0.296 0.144,-0.067 0.308,-0.1 0.491,-0.1 0.314,0 0.552,0.085 0.714,0.255 0.163,0.17 0.244,0.415 0.244,0.735l0 1.761z"/>
   <path id="5" class="fil4" d="M79.987 24.335l-0.737 0 0 -1.577c0,-0.39 -0.144,-0.585 -0.434,-0.585 -0.206,0 -0.355,0.07 -0.446,0.21 -0.092,0.14 -0.138,0.367 -0.138,0.681l0 1.271 -0.736 0 0 -3.76 0.736 0 0 0.767c0,0.059 -0.006,0.199 -0.017,0.42l-0.017 0.218 0.039 0c0.164,-0.264 0.424,-0.396 0.782,-0.396 0.317,0 0.558,0.085 0.722,0.256 0.164,0.171 0.246,0.415 0.246,0.734l0 1.761z"/>
   <path id="6" class="fil4" d="M82.461 24.335l-0.142 -0.367 -0.019 0c-0.125,0.156 -0.253,0.265 -0.384,0.325 -0.131,0.061 -0.301,0.091 -0.512,0.091 -0.26,0 -0.464,-0.074 -0.613,-0.223 -0.149,-0.148 -0.223,-0.359 -0.223,-0.633 0,-0.287 0.1,-0.498 0.3,-0.634 0.201,-0.136 0.503,-0.212 0.907,-0.226l0.469 -0.015 0 -0.119c0,-0.274 -0.14,-0.41 -0.421,-0.41 -0.215,0 -0.469,0.065 -0.76,0.195l-0.244 -0.496c0.311,-0.163 0.655,-0.244 1.034,-0.244 0.362,0 0.64,0.08 0.833,0.237 0.193,0.157 0.29,0.397 0.29,0.72l0 1.799 -0.515 0zm-0.217 -1.252l-0.285 0.01c-0.214,0.007 -0.374,0.045 -0.479,0.116 -0.104,0.071 -0.156,0.179 -0.156,0.324 0,0.208 0.119,0.312 0.357,0.312 0.171,0 0.307,-0.05 0.409,-0.148 0.103,-0.098 0.154,-0.229 0.154,-0.391l0 -0.223z"/>
   <path id="7" class="fil4" d="M85.24 21.584c0.1,0 0.184,0.008 0.249,0.022l-0.055 0.691c-0.06,-0.016 -0.132,-0.024 -0.217,-0.024 -0.235,0 -0.418,0.06 -0.55,0.181 -0.131,0.12 -0.197,0.289 -0.197,0.507l0 1.374 -0.736 0 0 -2.701 0.558 0 0.108 0.455 0.037 0c0.084,-0.151 0.197,-0.273 0.339,-0.366 0.142,-0.093 0.297,-0.139 0.464,-0.139z"/>
   <path id="8" class="fil4" d="M85.95 20.935c0,-0.24 0.133,-0.36 0.4,-0.36 0.267,0 0.401,0.12 0.401,0.36 0,0.114 -0.033,0.203 -0.1,0.267 -0.067,0.063 -0.167,0.095 -0.301,0.095 -0.267,0 -0.4,-0.121 -0.4,-0.362zm0.767 3.4l-0.736 0 0 -2.701 0.736 0 0 2.701z"/>
   <path id="9" class="fil4" d="M89.205 24.335l-0.142 -0.367 -0.019 0c-0.125,0.156 -0.253,0.265 -0.384,0.325 -0.131,0.061 -0.301,0.091 -0.513,0.091 -0.259,0 -0.463,-0.074 -0.612,-0.223 -0.149,-0.148 -0.223,-0.359 -0.223,-0.633 0,-0.287 0.1,-0.498 0.3,-0.634 0.201,-0.136 0.503,-0.212 0.907,-0.226l0.469 -0.015 0 -0.119c0,-0.274 -0.141,-0.41 -0.421,-0.41 -0.215,0 -0.469,0.065 -0.76,0.195l-0.244 -0.496c0.311,-0.163 0.655,-0.244 1.034,-0.244 0.362,0 0.64,0.08 0.832,0.237 0.194,0.157 0.291,0.397 0.291,0.72l0 1.799 -0.515 0zm-0.217 -1.252l-0.285 0.01c-0.214,0.007 -0.374,0.045 -0.479,0.116 -0.105,0.071 -0.157,0.179 -0.157,0.324 0,0.208 0.12,0.312 0.358,0.312 0.171,0 0.307,-0.05 0.409,-0.148 0.102,-0.098 0.154,-0.229 0.154,-0.391l0 -0.223z"/>
   <path class="fil4" d="M63.809 53.22c-0.282,0 -0.499,0.105 -0.654,0.317 -0.155,0.212 -0.232,0.507 -0.232,0.886 0,0.787 0.295,1.181 0.886,1.181 0.248,0 0.548,-0.062 0.9,-0.186l0 0.628c-0.289,0.121 -0.613,0.181 -0.97,0.181 -0.514,0 -0.906,-0.156 -1.178,-0.467 -0.272,-0.312 -0.408,-0.759 -0.408,-1.342 0,-0.367 0.067,-0.689 0.2,-0.965 0.134,-0.276 0.326,-0.488 0.576,-0.636 0.25,-0.147 0.544,-0.22 0.88,-0.22 0.343,0 0.687,0.083 1.033,0.248l-0.241 0.609c-0.132,-0.063 -0.265,-0.117 -0.399,-0.164 -0.133,-0.047 -0.264,-0.07 -0.393,-0.07z"/>
   <path id="1" class="fil4" d="M65.991 54.822c0,0.268 0.043,0.47 0.131,0.606 0.088,0.137 0.231,0.206 0.428,0.206 0.197,0 0.338,-0.068 0.424,-0.204 0.086,-0.136 0.129,-0.339 0.129,-0.608 0,-0.267 -0.043,-0.467 -0.13,-0.601 -0.087,-0.133 -0.23,-0.2 -0.428,-0.2 -0.196,0 -0.338,0.067 -0.424,0.2 -0.088,0.132 -0.13,0.333 -0.13,0.601zm1.865 0.002c0,0.44 -0.115,0.783 -0.347,1.032 -0.231,0.248 -0.555,0.371 -0.968,0.371 -0.259,0 -0.488,-0.057 -0.686,-0.17 -0.198,-0.113 -0.35,-0.277 -0.456,-0.489 -0.107,-0.213 -0.159,-0.461 -0.159,-0.744 0,-0.442 0.114,-0.785 0.344,-1.03 0.231,-0.245 0.554,-0.367 0.971,-0.367 0.259,0 0.488,0.057 0.686,0.17 0.198,0.112 0.35,0.274 0.456,0.485 0.107,0.211 0.159,0.458 0.159,0.742z"/>
   <path id="2" class="fil4" d="M70.958 56.178l-0.737 0 0 -1.577c0,-0.195 -0.035,-0.342 -0.104,-0.439 -0.069,-0.097 -0.179,-0.146 -0.331,-0.146 -0.205,0 -0.354,0.069 -0.446,0.206 -0.091,0.138 -0.137,0.366 -0.137,0.685l0 1.271 -0.737 0 0 -2.701 0.563 0 0.099 0.346 0.041 0c0.082,-0.13 0.195,-0.229 0.34,-0.296 0.143,-0.067 0.307,-0.1 0.49,-0.1 0.314,0 0.552,0.085 0.715,0.255 0.162,0.17 0.244,0.415 0.244,0.736l0 1.76z"/>
   <path id="3" class="fil4" d="M73.6 55.376c0,0.277 -0.095,0.489 -0.288,0.634 -0.192,0.145 -0.48,0.217 -0.864,0.217 -0.196,0 -0.363,-0.013 -0.502,-0.039 -0.138,-0.028 -0.268,-0.066 -0.389,-0.118l0 -0.609c0.137,0.065 0.291,0.118 0.463,0.162 0.171,0.044 0.322,0.065 0.452,0.065 0.268,0 0.402,-0.077 0.402,-0.232 0,-0.058 -0.018,-0.105 -0.054,-0.141 -0.035,-0.037 -0.096,-0.078 -0.183,-0.124 -0.087,-0.045 -0.203,-0.099 -0.348,-0.161 -0.207,-0.086 -0.36,-0.167 -0.457,-0.241 -0.097,-0.075 -0.168,-0.159 -0.213,-0.255 -0.044,-0.097 -0.066,-0.214 -0.066,-0.355 0,-0.239 0.092,-0.424 0.279,-0.555 0.185,-0.131 0.449,-0.197 0.79,-0.197 0.326,0 0.642,0.071 0.949,0.212l-0.221 0.531c-0.136,-0.058 -0.262,-0.106 -0.38,-0.143 -0.117,-0.037 -0.237,-0.055 -0.359,-0.055 -0.218,0 -0.327,0.058 -0.327,0.176 0,0.066 0.036,0.124 0.106,0.172 0.07,0.048 0.223,0.12 0.46,0.215 0.21,0.086 0.365,0.165 0.463,0.24 0.098,0.074 0.171,0.159 0.218,0.255 0.046,0.097 0.069,0.213 0.069,0.346z"/>
   <path id="4" class="fil4" d="M76.088 56.178l-0.099 -0.346 -0.039 0c-0.079,0.127 -0.191,0.224 -0.336,0.292 -0.145,0.069 -0.31,0.103 -0.494,0.103 -0.318,0 -0.557,-0.085 -0.718,-0.254 -0.16,-0.17 -0.241,-0.415 -0.241,-0.734l0 -1.762 0.737 0 0 1.577c0,0.195 0.034,0.341 0.104,0.439 0.068,0.097 0.179,0.146 0.33,0.146 0.206,0 0.355,-0.07 0.446,-0.207 0.092,-0.138 0.138,-0.366 0.138,-0.685l0 -1.27 0.736 0 0 2.701 -0.564 0z"/>
   <polygon id="5" class="fil4" points="78.163,56.178 77.426,56.178 77.426,52.418 78.163,52.418 "/>
   <path id="6" class="fil4" d="M80.073 55.639c0.129,0 0.283,-0.028 0.464,-0.085l0 0.55c-0.184,0.082 -0.409,0.123 -0.676,0.123 -0.295,0 -0.51,-0.074 -0.644,-0.223 -0.134,-0.149 -0.202,-0.373 -0.202,-0.67l0 -1.303 -0.352 0 0 -0.312 0.406 -0.247 0.212 -0.57 0.471 0 0 0.575 0.756 0 0 0.554 -0.756 0 0 1.301c0,0.105 0.03,0.182 0.088,0.232 0.059,0.05 0.136,0.075 0.233,0.075z"/>
   <path id="7" class="fil4" d="M81.67 54.822c0,0.268 0.044,0.47 0.131,0.606 0.088,0.137 0.231,0.206 0.429,0.206 0.196,0 0.337,-0.068 0.423,-0.204 0.086,-0.136 0.129,-0.339 0.129,-0.608 0,-0.267 -0.043,-0.467 -0.13,-0.601 -0.087,-0.133 -0.229,-0.2 -0.427,-0.2 -0.197,0 -0.338,0.067 -0.425,0.2 -0.087,0.132 -0.13,0.333 -0.13,0.601zm1.866 0.002c0,0.44 -0.116,0.783 -0.348,1.032 -0.231,0.248 -0.554,0.371 -0.968,0.371 -0.259,0 -0.488,-0.057 -0.686,-0.17 -0.198,-0.113 -0.35,-0.277 -0.456,-0.489 -0.106,-0.213 -0.159,-0.461 -0.159,-0.744 0,-0.442 0.114,-0.785 0.344,-1.03 0.231,-0.245 0.554,-0.367 0.972,-0.367 0.258,0 0.487,0.057 0.686,0.17 0.197,0.112 0.349,0.274 0.455,0.485 0.107,0.211 0.16,0.458 0.16,0.742z"/>
   <path id="8" class="fil4" d="M85.652 53.427c0.1,0 0.183,0.008 0.249,0.022l-0.055 0.691c-0.061,-0.016 -0.132,-0.024 -0.218,-0.024 -0.235,0 -0.418,0.06 -0.549,0.181 -0.131,0.121 -0.197,0.29 -0.197,0.507l0 1.374 -0.736 0 0 -2.701 0.558 0 0.108 0.455 0.036 0c0.084,-0.151 0.197,-0.273 0.34,-0.366 0.141,-0.092 0.297,-0.139 0.464,-0.139z"/>
   <path id="9" class="fil4" d="M86.361 52.778c0,-0.24 0.133,-0.36 0.401,-0.36 0.267,0 0.4,0.12 0.4,0.36 0,0.114 -0.033,0.204 -0.1,0.267 -0.066,0.063 -0.167,0.096 -0.3,0.096 -0.268,0 -0.401,-0.122 -0.401,-0.363zm0.767 3.4l-0.736 0 0 -2.701 0.736 0 0 2.701z"/>
   <path id="10" class="fil4" d="M89.617 56.178l-0.143 -0.367 -0.019 0c-0.124,0.157 -0.252,0.265 -0.383,0.326 -0.131,0.06 -0.302,0.09 -0.513,0.09 -0.26,0 -0.463,-0.074 -0.613,-0.222 -0.149,-0.149 -0.223,-0.36 -0.223,-0.633 0,-0.287 0.1,-0.499 0.301,-0.635 0.2,-0.136 0.503,-0.212 0.907,-0.226l0.468 -0.015 0 -0.119c0,-0.273 -0.14,-0.41 -0.421,-0.41 -0.215,0 -0.469,0.065 -0.76,0.195l-0.244 -0.496c0.311,-0.163 0.656,-0.243 1.034,-0.243 0.362,0 0.64,0.079 0.833,0.236 0.194,0.158 0.29,0.398 0.29,0.72l0 1.799 -0.514 0zm-0.218 -1.252l-0.285 0.01c-0.214,0.007 -0.374,0.045 -0.478,0.116 -0.105,0.071 -0.157,0.179 -0.157,0.324 0,0.208 0.119,0.312 0.358,0.312 0.17,0 0.306,-0.049 0.409,-0.147 0.102,-0.099 0.153,-0.23 0.153,-0.392l0 -0.223z"/>
  </g>
 </g>
</svg>
