<?xml version="1.0" encoding="UTF-8"?>
<!DOCTYPE svg PUBLIC "-//W3C//DTD SVG 1.1//EN" "http://www.w3.org/Graphics/SVG/1.1/DTD/svg11.dtd">
<!-- Creator: CorelDRAW 2018 (64 Bit) -->
<svg xmlns="http://www.w3.org/2000/svg" xml:space="preserve" width="70px" height="70px" version="1.1" style="shape-rendering:geometricPrecision; text-rendering:geometricPrecision; image-rendering:optimizeQuality; fill-rule:evenodd; clip-rule:evenodd"
viewBox="0 0 4.757 4.757"
 xmlns:xlink="http://www.w3.org/1999/xlink">
 <defs>
  <style type="text/css">
   <![CDATA[
    .fil0 {fill:#76C04E}
    .fil1 {fill:white;fill-rule:nonzero}
   ]]>
  </style>
 </defs>
 <g id="Camada_x0020_1">
  <metadata id="CorelCorpID_0Corel-Layer"/>
  <circle class="fil0" cx="2.379" cy="2.379" r="2.379"/>
  <polygon class="fil1" points="2.951,2.381 3.46,2.656 3.17,3.135 2.646,2.821 2.661,3.395 2.091,3.395 2.106,2.821 1.582,3.135 1.297,2.656 1.807,2.381 1.297,2.101 1.582,1.622 2.106,1.942 2.091,1.362 2.661,1.362 2.646,1.942 3.17,1.622 3.46,2.101 "/>
 </g>
</svg>
