<?xml version="1.0" encoding="UTF-8"?>
<!DOCTYPE svg PUBLIC "-//W3C//DTD SVG 1.1//EN" "http://www.w3.org/Graphics/SVG/1.1/DTD/svg11.dtd">
<!-- Creator: CorelDRAW 2018 (64 Bit) -->
<svg xmlns="http://www.w3.org/2000/svg" xml:space="preserve" width="70px" height="70px" version="1.1" style="shape-rendering:geometricPrecision; text-rendering:geometricPrecision; image-rendering:optimizeQuality; fill-rule:evenodd; clip-rule:evenodd"
viewBox="0 0 5.904 5.904"
 xmlns:xlink="http://www.w3.org/1999/xlink">
 <defs>
  <style type="text/css">
   <![CDATA[
    .fil0 {fill:#76C04E}
    .fil1 {fill:white;fill-rule:nonzero}
   ]]>
  </style>
 </defs>
 <g id="Camada_x0020_1">
  <metadata id="CorelCorpID_0Corel-Layer"/>
  <circle class="fil0" cx="2.952" cy="2.952" r="2.952"/>
  <polygon class="fil1" points="3.331,3.034 3.031,3.034 3.031,3.421 2.475,3.421 2.475,3.034 1.408,3.034 1.408,2.662 2.313,1.402 2.904,1.402 2.083,2.582 2.492,2.582 2.492,2.239 3.031,2.239 3.031,2.582 3.331,2.582 "/>
  <path id="1" class="fil1" d="M3.841 1.255c0.35,0 0.525,0.146 0.525,0.436l0 0.513 -0.346 0 0 -0.121c-0.05,0.09 -0.148,0.135 -0.294,0.135 -0.117,0 -0.208,-0.027 -0.273,-0.08 -0.064,-0.054 -0.096,-0.123 -0.096,-0.208 0,-0.185 0.147,-0.277 0.441,-0.277l0.193 0c-0.009,-0.09 -0.079,-0.135 -0.207,-0.135 -0.045,0 -0.091,0.007 -0.14,0.021 -0.049,0.015 -0.091,0.034 -0.126,0.059l-0.121 -0.23c0.056,-0.035 0.124,-0.062 0.205,-0.082 0.081,-0.021 0.16,-0.031 0.239,-0.031zm-0.008 0.747c0.036,0 0.068,-0.008 0.096,-0.024 0.028,-0.017 0.049,-0.04 0.062,-0.071l0 -0.075 -0.135 0c-0.098,0 -0.147,0.028 -0.147,0.084 0,0.027 0.011,0.048 0.033,0.063 0.022,0.015 0.052,0.023 0.091,0.023z"/>
  <polygon id="2" class="fil1" points="1.82,4.501 1.82,4.648 1.28,4.648 1.28,3.976 1.807,3.976 1.807,4.123 1.468,4.123 1.468,4.236 1.767,4.236 1.767,4.378 1.468,4.378 1.468,4.501 "/>
  <polygon id="3" class="fil1" points="2.069,4.126 1.862,4.126 1.862,3.976 2.465,3.976 2.465,4.126 2.259,4.126 2.259,4.648 2.069,4.648 "/>
  <path id="4" class="fil1" d="M2.953 4.518l-0.285 0 -0.053 0.13 -0.194 0 0.297 -0.672 0.188 0 0.298 0.672 -0.198 0 -0.053 -0.13zm-0.056 -0.141l-0.086 -0.215 -0.087 0.215 0.173 0z"/>
  <path id="5" class="fil1" d="M3.565 3.976c0.061,0 0.114,0.01 0.158,0.03 0.045,0.02 0.08,0.049 0.104,0.086 0.025,0.038 0.037,0.082 0.037,0.132 0,0.051 -0.012,0.095 -0.037,0.132 -0.024,0.037 -0.059,0.066 -0.104,0.086 -0.044,0.02 -0.097,0.03 -0.158,0.03l-0.117 0 0 0.176 -0.191 0 0 -0.672 0.308 0zm-0.012 0.346c0.039,0 0.069,-0.008 0.089,-0.025 0.02,-0.017 0.03,-0.041 0.03,-0.073 0,-0.031 -0.01,-0.055 -0.03,-0.073 -0.02,-0.017 -0.05,-0.026 -0.089,-0.026l-0.105 0 0 0.197 0.105 0z"/>
  <path id="6" class="fil1" d="M4.373 4.518l-0.284 0 -0.053 0.13 -0.194 0 0.297 -0.672 0.187 0 0.298 0.672 -0.198 0 -0.053 -0.13zm-0.056 -0.141l-0.086 -0.215 -0.087 0.215 0.173 0z"/>
 </g>
</svg>
