<?xml version="1.0" encoding="UTF-8"?>
<!DOCTYPE svg PUBLIC "-//W3C//DTD SVG 1.1//EN" "http://www.w3.org/Graphics/SVG/1.1/DTD/svg11.dtd">
<!-- Creator: CorelDRAW 2018 (64 Bit) -->
<svg xmlns="http://www.w3.org/2000/svg" xml:space="preserve" width="64px" height="64px" version="1.1" style="shape-rendering:geometricPrecision; text-rendering:geometricPrecision; image-rendering:optimizeQuality; fill-rule:evenodd; clip-rule:evenodd"
viewBox="0 0 0.34 0.34"
 xmlns:xlink="http://www.w3.org/1999/xlink">
 <defs>
  <style type="text/css">
   <![CDATA[
    .fil0 {fill:#76C04E;fill-rule:nonzero}
   ]]>
  </style>
 </defs>
 <g id="Camada_x0020_1">
  <metadata id="CorelCorpID_0Corel-Layer"/>
  <g id="_2367865136768">
   <path class="fil0" d="M0.303 0.266l-0.266 0c-0.02,0 -0.037,0.017 -0.037,0.037 0,0.021 0.017,0.037 0.037,0.037l0.266 0c0.021,0 0.037,-0.016 0.037,-0.037 0,-0.02 -0.016,-0.037 -0.037,-0.037zm0 0.064l-0.266 0c-0.014,0 -0.026,-0.012 -0.026,-0.027 0,-0.015 0.012,-0.027 0.026,-0.027l0.266 0c0.015,0 0.027,0.012 0.027,0.027 0,0.015 -0.012,0.027 -0.027,0.027z"/>
   <path class="fil0" d="M0.283 0.298l-0.013 0c-0.005,-0.014 -0.025,-0.014 -0.03,0l-0.012 0c-0.005,-0.014 -0.025,-0.014 -0.03,0l-0.013 0c-0.005,-0.014 -0.025,-0.014 -0.03,0l-0.012 0c-0.005,-0.014 -0.025,-0.014 -0.03,0l-0.013 0c-0.005,-0.014 -0.025,-0.014 -0.03,0l-0.012 0c-0.006,-0.017 -0.031,-0.013 -0.031,0.005 0,0.018 0.025,0.022 0.031,0.005l0.012 0c0.005,0.015 0.025,0.015 0.03,0l0.013 0c0.005,0.015 0.025,0.015 0.03,0l0.012 0c0.005,0.015 0.025,0.015 0.03,0l0.013 0c0.005,0.015 0.025,0.015 0.03,0l0.012 0c0.005,0.015 0.025,0.015 0.03,0l0.013 0c0.006,0.017 0.031,0.013 0.031,-0.005 0,-0.018 -0.025,-0.022 -0.031,-0.005zm-0.24 0.01c-0.003,0 -0.005,-0.001 -0.005,-0.003 -0.001,-0.002 -0.001,-0.004 0.001,-0.006 0.001,-0.001 0.004,-0.002 0.006,-0.001 0.002,0.001 0.003,0.003 0.003,0.005 0,0.003 -0.003,0.005 -0.005,0.005zm0.042 0c-0.002,0 -0.004,-0.001 -0.005,-0.003 -0.001,-0.002 0,-0.004 0.001,-0.006 0.002,-0.001 0.004,-0.002 0.006,-0.001 0.002,0.001 0.003,0.003 0.003,0.005 0,0.003 -0.002,0.005 -0.005,0.005zm0.043 0c-0.003,0 -0.004,-0.001 -0.005,-0.003 -0.001,-0.002 -0.001,-0.004 0.001,-0.006 0.001,-0.001 0.004,-0.002 0.006,-0.001 0.002,0.001 0.003,0.003 0.003,0.005 0,0.003 -0.002,0.005 -0.005,0.005zm0.042 0c-0.002,0 -0.004,-0.001 -0.005,-0.003 -0.001,-0.002 0,-0.004 0.001,-0.006 0.002,-0.001 0.004,-0.002 0.006,-0.001 0.002,0.001 0.003,0.003 0.003,0.005 0,0.003 -0.002,0.005 -0.005,0.005zm0.043 0c-0.002,0 -0.004,-0.001 -0.005,-0.003 -0.001,-0.002 -0.001,-0.004 0.001,-0.006 0.001,-0.001 0.004,-0.002 0.006,-0.001 0.002,0.001 0.003,0.003 0.003,0.005 0,0.003 -0.002,0.005 -0.005,0.005zm0.042 0c-0.002,0 -0.004,-0.001 -0.005,-0.003 -0.001,-0.002 0,-0.004 0.001,-0.006 0.002,-0.001 0.004,-0.002 0.006,-0.001 0.002,0.001 0.004,0.003 0.004,0.005 0,0.003 -0.003,0.005 -0.006,0.005zm0.043 0c-0.002,0 -0.004,-0.001 -0.005,-0.003 -0.001,-0.002 -0.001,-0.004 0.001,-0.006 0.002,-0.001 0.004,-0.002 0.006,-0.001 0.002,0.001 0.003,0.003 0.003,0.005 0,0.003 -0.002,0.005 -0.005,0.005z"/>
   <path class="fil0" d="M0.154 0.255c0.003,0 0.006,-0.002 0.006,-0.005l0 -0.08c0,-0.006 -0.005,-0.01 -0.011,-0.01l-0.053 0c-0.003,0 -0.006,0.002 -0.006,0.005 0,0.003 0.003,0.005 0.006,0.005l0.053 0 0 0.08c0,0.003 0.002,0.005 0.005,0.005z"/>
   <path class="fil0" d="M0.043 0.16c-0.006,0 -0.011,0.004 -0.011,0.01l0 0.08c0,0.003 0.002,0.005 0.005,0.005 0.003,0 0.006,-0.002 0.006,-0.005l0 -0.08 0.01 0c0.003,0 0.005,-0.002 0.005,-0.005 0,-0.003 -0.002,-0.005 -0.005,-0.005l-0.01 0z"/>
   <path class="fil0" d="M0.282 0.138c0.003,0 0.005,-0.002 0.005,-0.005 0,-0.003 -0.002,-0.005 -0.005,-0.005l-0.053 0c-0.003,0 -0.006,0.002 -0.006,0.005 0,0.003 0.003,0.005 0.006,0.005l0.053 0z"/>
   <path class="fil0" d="M0.186 0.16c-0.003,0 -0.005,0.002 -0.005,0.005l0 0.069c0,0.006 0.005,0.011 0.01,0.011l0.107 0c0.006,0 0.01,-0.005 0.01,-0.011l0 -0.069c0,-0.003 -0.002,-0.005 -0.005,-0.005 -0.003,0 -0.005,0.002 -0.005,0.005l0 0.069 -0.107 0 0 -0.069c0,-0.003 -0.002,-0.005 -0.005,-0.005z"/>
   <path class="fil0" d="M0.25 0.027c0,0.003 -0.002,0.005 -0.005,0.005 -0.003,0 -0.006,-0.002 -0.006,-0.005 0,-0.003 0.003,-0.006 0.006,-0.006 0.003,0 0.005,0.003 0.005,0.006z"/>
   <path class="fil0" d="M0.117 0.027c0,0.003 -0.002,0.005 -0.005,0.005 -0.003,0 -0.006,-0.002 -0.006,-0.005 0,-0.003 0.003,-0.006 0.006,-0.006 0.003,0 0.005,0.003 0.005,0.006z"/>
   <path class="fil0" d="M0.098 0.035c-0.003,-0.005 -0.004,-0.002 -0.093,-0.003 -0.003,0 -0.005,0.002 -0.005,0.005 0,0.003 0.002,0.006 0.005,0.006l0.085 0c0.005,0.006 0.013,0.01 0.022,0.01 0.008,0 0.016,-0.004 0.021,-0.01l0.09 0 0 0.013c-0.011,0.008 -0.016,0.008 -0.016,0.013l0 0.005 -0.026 0c-0.012,0 -0.021,0.01 -0.021,0.022l0 0.037c0,0.002 0.001,0.004 0.002,0.005 0.023,0.011 0.023,0.012 0.027,0.01 0.004,-0.003 0.002,-0.006 0.002,-0.042l0.016 0 0 0.006c0,0.003 0.003,0.005 0.006,0.005l0.063 0c0.003,0 0.006,-0.002 0.006,-0.005l0 -0.006 0.016 0c0.001,0.037 -0.002,0.039 0.002,0.042 0.004,0.002 0.005,0 0.027,-0.01 0.002,-0.001 0.003,-0.003 0.003,-0.005l0 -0.037c0,-0.012 -0.01,-0.022 -0.022,-0.022l-0.026 0c-0.001,-0.003 0.001,-0.007 -0.003,-0.009l-0.013 -0.009 0 -0.013 0 0c0.003,-0.005 0.005,-0.011 0.005,-0.016 0,-0.026 -0.032,-0.037 -0.048,-0.016l-0.069 0c-0.003,0 -0.005,0.002 -0.005,0.005 0,0.003 0.002,0.005 0.005,0.005 0.074,-0.001 0.074,0.002 0.077,-0.002 0.008,-0.015 0.03,-0.009 0.03,0.008 0,0.016 -0.022,0.022 -0.03,0.008 -0.003,-0.005 -0.002,-0.002 -0.093,-0.003 0.005,-0.028 -0.031,-0.044 -0.048,-0.021l-0.085 0c-0.003,0 -0.005,0.002 -0.005,0.005 0,0.003 0.002,0.005 0.005,0.005 0.09,-0.001 0.09,0.003 0.093,-0.002 0.003,-0.007 0.011,-0.01 0.018,-0.008 0.007,0.002 0.012,0.008 0.012,0.016 0,0.007 -0.005,0.013 -0.012,0.015 -0.007,0.002 -0.015,-0.001 -0.018,-0.007zm0.109 0.061l-0.021 0c-0.003,0 -0.005,0.002 -0.005,0.005l0 0.034 -0.011 -0.005 0 -0.034c0,-0.006 0.005,-0.011 0.011,-0.011l0.026 0 0 0.011zm0.075 -0.011l0.026 0c0.006,0 0.011,0.005 0.011,0.011l0 0.034 -0.011 0.005 0 -0.034c0,-0.003 -0.002,-0.005 -0.005,-0.005l-0.021 0 0 -0.011zm-0.048 -0.027l0 -0.007c0.007,0.003 0.014,0.003 0.021,0 0.001,0.005 -0.001,0.009 0.003,0.012l0.013 0.009 0 0.034 -0.01 0 0 -0.021c0,-0.003 -0.003,-0.005 -0.006,-0.005 -0.003,0 -0.005,0.002 -0.005,0.005l0 0.021 -0.011 0 0 -0.021c0,-0.003 -0.002,-0.005 -0.005,-0.005 -0.003,0 -0.005,0.002 -0.005,0.005l0 0.021 -0.011 0 0 -0.034c0.011,-0.008 0.016,-0.009 0.016,-0.014z"/>
   <path class="fil0" d="M0.08 0.165c0,0.003 -0.003,0.005 -0.006,0.005 -0.002,0 -0.005,-0.002 -0.005,-0.005 0,-0.003 0.003,-0.005 0.005,-0.005 0.003,0 0.006,0.002 0.006,0.005z"/>
   <path class="fil0" d="M0.213 0.133c0,0.003 -0.003,0.005 -0.006,0.005 -0.003,0 -0.005,-0.002 -0.005,-0.005 0,-0.003 0.002,-0.005 0.005,-0.005 0.003,0 0.006,0.002 0.006,0.005z"/>
  </g>
 </g>
</svg>
