<?xml version="1.0" encoding="UTF-8"?>
<!DOCTYPE svg PUBLIC "-//W3C//DTD SVG 1.1//EN" "http://www.w3.org/Graphics/SVG/1.1/DTD/svg11.dtd">
<!-- Creator: CorelDRAW 2018 (64 Bit) -->
<svg xmlns="http://www.w3.org/2000/svg" xml:space="preserve" width="80px" height="80px" version="1.1" style="shape-rendering:geometricPrecision; text-rendering:geometricPrecision; image-rendering:optimizeQuality; fill-rule:evenodd; clip-rule:evenodd"
viewBox="0 0 22.069 22.069"
 xmlns:xlink="http://www.w3.org/1999/xlink">
 <defs>
  <style type="text/css">
   <![CDATA[
    .fil0 {fill:#76C04E}
   ]]>
  </style>
 </defs>
 <g id="Camada_x0020_1">
  <metadata id="CorelCorpID_0Corel-Layer"/>
  <g id="_1470064482320">
   <path class="fil0" d="M17.656 11.77c-0.442,0 -0.834,0.2 -1.104,0.509 -0.27,-0.309 -0.662,-0.509 -1.103,-0.509 -0.442,0 -0.834,0.2 -1.104,0.509 -0.27,-0.309 -0.662,-0.509 -1.103,-0.509 -0.27,0 -0.519,0.078 -0.736,0.205l0 -1.145c0.048,-0.013 0.096,-0.026 0.144,-0.04 0.036,-0.011 0.071,-0.025 0.107,-0.036 0.111,-0.037 0.22,-0.076 0.328,-0.119 0.029,-0.012 0.058,-0.024 0.086,-0.036 0.125,-0.052 0.247,-0.108 0.367,-0.169 0.006,-0.004 0.013,-0.007 0.019,-0.01 0.511,-0.263 0.982,-0.603 1.392,-1.015 0.012,-0.012 0.016,-0.029 0.026,-0.042 0.98,-1.007 1.577,-2.375 1.577,-3.846 0,-1.524 -0.608,-2.942 -1.711,-3.994 -1.103,-1.051 -2.551,-1.589 -4.078,-1.517 -2.709,0.131 -4.953,2.26 -5.218,4.953 -0.166,1.688 0.448,3.286 1.56,4.42 0.006,0.008 0.008,0.019 0.016,0.026 0.025,0.026 0.052,0.048 0.077,0.073 0.019,0.018 0.038,0.035 0.057,0.053 0.092,0.087 0.188,0.171 0.286,0.252 0.029,0.023 0.058,0.048 0.088,0.071 0.099,0.077 0.199,0.151 0.303,0.221 0.026,0.018 0.05,0.036 0.076,0.054 0.128,0.083 0.258,0.162 0.392,0.235 0.031,0.017 0.063,0.031 0.095,0.047 0.103,0.054 0.209,0.105 0.316,0.152 0.049,0.022 0.099,0.042 0.15,0.063 0.097,0.039 0.197,0.076 0.297,0.11 0.048,0.016 0.096,0.033 0.145,0.048 0.053,0.017 0.107,0.032 0.161,0.047l0 5.569 -1.198 -1.198c-0.316,-0.316 -0.735,-0.489 -1.181,-0.489 -0.919,0 -1.668,0.748 -1.668,1.668 0,0.446 0.174,0.865 0.489,1.18l3.557 3.557 0 0.583c0,0.204 0.165,0.368 0.368,0.368l8.46 0c0.204,0 0.368,-0.164 0.368,-0.368l0 -1.384 0.329 -0.658c0.026,-0.051 0.039,-0.107 0.039,-0.164l0 -6.255c0,-0.81 -0.66,-1.47 -1.471,-1.47zm-10.472 -3.431c-0.677,-0.925 -1.027,-2.089 -0.907,-3.308 0.23,-2.333 2.174,-4.177 4.521,-4.29 1.325,-0.066 2.579,0.404 3.535,1.314 0.957,0.912 1.483,2.141 1.483,3.462 0,1.039 -0.343,2.021 -0.931,2.821 -0.349,-1.09 -1.153,-1.993 -2.201,-2.464 0.346,-0.389 0.558,-0.9 0.558,-1.46 0,-1.217 -0.99,-2.207 -2.207,-2.207 -1.217,0 -2.207,0.99 -2.207,2.207 0,0.56 0.212,1.071 0.557,1.461 -1.048,0.471 -1.852,1.374 -2.201,2.464zm5.322 -3.925c0,0.543 -0.299,1.012 -0.737,1.267 -0.002,0.001 -0.005,0.001 -0.007,0.002 -0.102,0.059 -0.208,0.103 -0.314,0.135 -0.02,0.006 -0.038,0.014 -0.059,0.019 -0.039,0.01 -0.08,0.017 -0.12,0.024 -0.066,0.011 -0.133,0.019 -0.203,0.021 -0.021,0 -0.042,0 -0.064,0 -0.069,-0.002 -0.137,-0.01 -0.203,-0.021 -0.04,-0.007 -0.08,-0.014 -0.12,-0.024 -0.02,-0.006 -0.039,-0.013 -0.058,-0.019 -0.107,-0.032 -0.213,-0.076 -0.315,-0.135 -0.002,-0.001 -0.004,-0.001 -0.006,-0.002 -0.438,-0.254 -0.737,-0.724 -0.737,-1.267 0,-0.812 0.66,-1.472 1.472,-1.472 0.811,0 1.471,0.66 1.471,1.472zm-2.943 4.414l0 1.237c-0.153,-0.049 -0.302,-0.108 -0.449,-0.172 -0.042,-0.019 -0.082,-0.039 -0.123,-0.058 -0.103,-0.049 -0.205,-0.101 -0.304,-0.158 -0.048,-0.026 -0.094,-0.053 -0.14,-0.081 -0.096,-0.058 -0.188,-0.121 -0.279,-0.186 -0.04,-0.028 -0.082,-0.055 -0.121,-0.085 -0.118,-0.089 -0.233,-0.185 -0.343,-0.286 -0.011,-0.01 -0.02,-0.021 -0.031,-0.032 0.209,-1.226 1.108,-2.246 2.303,-2.609 0.29,0.141 0.615,0.223 0.959,0.223 0.344,0 0.668,-0.082 0.959,-0.223 1.193,0.361 2.09,1.379 2.301,2.602 -0.05,0.047 -0.098,0.095 -0.15,0.139 -0.01,0.009 -0.021,0.018 -0.032,0.027 -0.175,0.149 -0.361,0.285 -0.556,0.408 -0.009,0.005 -0.017,0.011 -0.026,0.017 -0.07,0.043 -0.144,0.082 -0.217,0.122 -0.069,0.038 -0.138,0.074 -0.208,0.108 -0.06,0.029 -0.121,0.058 -0.182,0.084 -0.129,0.055 -0.259,0.107 -0.393,0.151 -0.008,0.003 -0.016,0.006 -0.025,0.009l0 -1.237c0,-0.812 -0.66,-1.472 -1.471,-1.472 -0.811,0 -1.472,0.66 -1.472,1.472zm8.828 10.58l-0.329 0.658c-0.025,0.051 -0.039,0.107 -0.039,0.164l0 1.104 -7.724 0 0 -0.368c0,-0.098 -0.039,-0.191 -0.108,-0.26l-3.665 -3.666c-0.176,-0.175 -0.273,-0.41 -0.273,-0.659 0,-0.514 0.419,-0.933 0.932,-0.933 0.25,0 0.484,0.098 0.66,0.273l1.826 1.827c0.106,0.105 0.264,0.137 0.401,0.079 0.138,-0.056 0.227,-0.191 0.227,-0.339l0 -6.743 0 -1.717c0,-0.406 0.33,-0.736 0.736,-0.736 0.405,0 0.735,0.33 0.735,0.736l0 1.717 0 2.697 0 2.206 0.736 0 0 -2.206c0,-0.406 0.33,-0.736 0.736,-0.736 0.405,0 0.735,0.33 0.735,0.736l0 2.206 0.736 0 0 -2.206c0,-0.406 0.33,-0.736 0.736,-0.736 0.405,0 0.735,0.33 0.735,0.736l0 2.206 0.736 0 0 -2.206c0,-0.406 0.33,-0.736 0.736,-0.736 0.405,0 0.735,0.329 0.735,0.734l0 6.168z"/>
   <path class="fil0" d="M3.76 6.912c0.396,-0.338 0.654,-0.834 0.654,-1.395 0,-1.014 -0.825,-1.839 -1.839,-1.839 -1.014,0 -1.839,0.825 -1.839,1.839 0,0.561 0.257,1.057 0.654,1.395 -0.825,0.43 -1.39,1.291 -1.39,2.283l0 1.104c0,0.203 0.164,0.368 0.368,0.368l4.414 0c0.203,0 0.368,-0.165 0.368,-0.368l0 -1.104c0,-0.992 -0.566,-1.853 -1.39,-2.283zm-1.185 -2.498c0.608,0 1.103,0.495 1.103,1.103 0,0.609 -0.495,1.104 -1.103,1.104 -0.609,0 -1.104,-0.495 -1.104,-1.104 0,-0.608 0.495,-1.103 1.104,-1.103zm1.839 5.517l-3.678 0 0 -0.736c0,-1.014 0.825,-1.839 1.839,-1.839 1.014,0 1.839,0.825 1.839,1.839l0 0.736z"/>
   <path class="fil0" d="M20.679 6.544c0.397,-0.337 0.655,-0.834 0.655,-1.395 0,-1.014 -0.825,-1.839 -1.839,-1.839 -1.014,0 -1.839,0.825 -1.839,1.839 0,0.561 0.257,1.058 0.654,1.395 -0.825,0.43 -1.39,1.291 -1.39,2.284l0 1.103c0,0.204 0.164,0.368 0.368,0.368l4.414 0c0.203,0 0.367,-0.164 0.367,-0.368l0 -1.103c0,-0.993 -0.565,-1.854 -1.39,-2.284zm-1.184 -2.498c0.608,0 1.103,0.495 1.103,1.103 0,0.609 -0.495,1.104 -1.103,1.104 -0.609,0 -1.104,-0.495 -1.104,-1.104 0,-0.608 0.495,-1.103 1.104,-1.103zm1.839 5.517l-3.678 0 0 -0.735c0,-1.014 0.825,-1.839 1.839,-1.839 1.014,0 1.839,0.825 1.839,1.839l0 0.735z"/>
  </g>
 </g>
</svg>
