<?xml version="1.0" encoding="UTF-8"?>
<!DOCTYPE svg PUBLIC "-//W3C//DTD SVG 1.1//EN" "http://www.w3.org/Graphics/SVG/1.1/DTD/svg11.dtd">
<!-- Creator: CorelDRAW 2018 (64 Bit) -->
<svg xmlns="http://www.w3.org/2000/svg" xml:space="preserve" width="95px" height="95px" version="1.1" style="shape-rendering:geometricPrecision; text-rendering:geometricPrecision; image-rendering:optimizeQuality; fill-rule:evenodd; clip-rule:evenodd"
viewBox="0 0 8.899 8.959"
 xmlns:xlink="http://www.w3.org/1999/xlink">
 <defs>
  <style type="text/css">
   <![CDATA[
    .fil0 {fill:#76C04E}
   ]]>
  </style>
 </defs>
 <g id="Camada_x0020_1">
  <metadata id="CorelCorpID_0Corel-Layer"/>
  <path class="fil0" d="M8.392 6.512c0.332,-0.632 0.507,-1.344 0.507,-2.062 0,-2.454 -1.996,-4.45 -4.449,-4.45 -2.454,0 -4.45,1.996 -4.45,4.45 0,2.453 1.996,4.449 4.45,4.449 0.686,0 1.342,-0.153 1.952,-0.452l0.424 0.424c0.057,0.057 0.133,0.088 0.214,0.088 0.081,0 0.157,-0.031 0.214,-0.089l1.536 -1.535c0.057,-0.057 0.088,-0.133 0.088,-0.214 0,-0.081 -0.031,-0.158 -0.088,-0.215l-0.398 -0.394zm-0.729 -0.724c0.264,-0.081 0.525,-0.173 0.782,-0.274 -0.07,0.264 -0.166,0.521 -0.287,0.765l-0.495 -0.491zm-0.156 -1.665c-0.033,-0.08 -0.115,-0.128 -0.218,-0.128l-1.053 0c-0.012,-0.29 -0.035,-0.579 -0.071,-0.866 0.795,0.132 1.58,0.353 2.343,0.669 0.009,0.004 0.018,0.003 0.027,0.005 0.033,0.211 0.051,0.427 0.051,0.647 0,0.235 -0.022,0.47 -0.062,0.701 -0.005,0.002 -0.011,0.001 -0.016,0.003 -0.357,0.148 -0.726,0.278 -1.096,0.385l-0.573 -0.569 0.604 -0.603c0.073,-0.074 0.097,-0.165 0.064,-0.244zm-3.593 0.176l0 1.647c-0.288,-0.014 -0.575,-0.039 -0.86,-0.077 -0.124,-0.926 -0.124,-1.862 0,-2.788 0.926,-0.124 1.862,-0.124 2.788,0 0.04,0.302 0.067,0.607 0.081,0.915l-1.705 0c-0.168,-0.001 -0.304,0.135 -0.304,0.303zm-3.54 0.852c-0.039,-0.228 -0.06,-0.462 -0.06,-0.701 0,-0.22 0.017,-0.436 0.05,-0.647 0.009,-0.002 0.019,-0.001 0.027,-0.005 0.762,-0.316 1.547,-0.537 2.341,-0.668 -0.112,0.894 -0.112,1.796 0,2.69 -0.801,-0.131 -1.585,-0.352 -2.341,-0.666 -0.005,-0.002 -0.011,-0.001 -0.017,-0.003zm8.087 -1.707c-0.764,-0.303 -1.549,-0.517 -2.343,-0.641 -0.125,-0.807 -0.34,-1.597 -0.644,-2.361 1.465,0.375 2.619,1.534 2.987,3.002zm-3.343 -3.075c0.001,0.016 0.003,0.033 0.01,0.049 0.313,0.756 0.535,1.54 0.666,2.341 -0.894,-0.113 -1.796,-0.113 -2.691,0 0.132,-0.794 0.353,-1.579 0.669,-2.341 0.006,-0.016 0.008,-0.033 0.009,-0.049 0.218,-0.036 0.441,-0.055 0.669,-0.055 0.227,0 0.451,0.019 0.668,0.055zm-1.692 0.073c-0.307,0.77 -0.524,1.561 -0.649,2.361 -0.793,0.125 -1.576,0.339 -2.339,0.641 0.368,-1.468 1.523,-2.627 2.988,-3.002zm-2.973 5.073c0.752,0.296 1.529,0.506 2.323,0.629 0.122,0.782 0.332,1.554 0.627,2.307 -1.435,-0.375 -2.567,-1.504 -2.95,-2.936zm3.316 3.014c-0.314,-0.761 -0.535,-1.545 -0.666,-2.338 0.269,0.034 0.539,0.056 0.811,0.069l0 1.11c0,0.159 0.105,0.232 0.201,0.232 0.042,0 0.106,-0.014 0.171,-0.079l0.589 -0.603 0.61 0.61c-0.102,0.338 -0.221,0.675 -0.355,0.999 -0.223,0.037 -0.45,0.057 -0.68,0.057 -0.232,0 -0.459,-0.02 -0.681,-0.057zm1.727 -0.078c0.086,-0.221 0.166,-0.445 0.238,-0.672l0.433 0.433c-0.218,0.1 -0.442,0.18 -0.671,0.239zm1.544 0.191l-1.944 -1.944c-0.057,-0.057 -0.133,-0.089 -0.214,-0.089 -0.081,0 -0.157,0.032 -0.214,0.089l-0.441 0.44 -0.009 -2.829 2.838 0 -0.439 0.44c-0.118,0.118 -0.118,0.31 0,0.428l1.951 1.936 -1.528 1.529z"/>
 </g>
</svg>
