<?xml version="1.0" encoding="UTF-8"?>
<!DOCTYPE svg PUBLIC "-//W3C//DTD SVG 1.1//EN" "http://www.w3.org/Graphics/SVG/1.1/DTD/svg11.dtd">
<!-- Creator: CorelDRAW 2018 (64 Bit) -->
<svg xmlns="http://www.w3.org/2000/svg" xml:space="preserve" width="71.8046mm" height="70.5555mm" version="1.1" style="shape-rendering:geometricPrecision; text-rendering:geometricPrecision; image-rendering:optimizeQuality; fill-rule:evenodd; clip-rule:evenodd"
viewBox="0 0 132.71 130.41"
 xmlns:xlink="http://www.w3.org/1999/xlink">
 <defs>
  <style type="text/css">
   <![CDATA[
    .fil4 {fill:#606062}
    .fil1 {fill:#606062}
    .fil2 {fill:#76C04E}
    .fil5 {fill:#76C04E}
    .fil3 {fill:#606062;fill-rule:nonzero}
    .fil0 {fill:#76C04E;fill-rule:nonzero}
   ]]>
  </style>
 </defs>
 <g id="Camada_x0020_1">
  <metadata id="CorelCorpID_0Corel-Layer"/>
  <g id="_2761001523376">
   <path class="fil0" d="M90.21 124.5l-5.13 1.96 -0.53 2.91 -2.72 1.04 2.93 -13.73 2.52 -0.96 6.91 9.98 -2.55 0.97 -1.42 -2.16zm-1.16 -1.77l-2.55 -3.9 -0.98 5.24 3.53 -1.34zm14.44 -2.56c-0.96,0.69 -1.91,1.12 -2.88,1.29 -0.96,0.17 -1.86,0.08 -2.7,-0.27 -0.84,-0.35 -1.55,-0.94 -2.14,-1.75 -0.78,-1.08 -1.24,-2.24 -1.37,-3.46 -0.13,-1.23 0.07,-2.42 0.61,-3.57 0.54,-1.15 1.39,-2.15 2.55,-2.99 0.86,-0.62 1.72,-1.02 2.58,-1.2 0.87,-0.18 1.66,-0.12 2.4,0.18l-0.65 2.47c-1.05,-0.38 -2.09,-0.19 -3.12,0.55 -0.7,0.51 -1.2,1.12 -1.5,1.83 -0.3,0.72 -0.39,1.46 -0.28,2.24 0.11,0.78 0.42,1.51 0.92,2.2 0.53,0.74 1.19,1.15 1.97,1.24 0.78,0.09 1.59,-0.17 2.44,-0.78 1.01,-0.73 1.59,-1.71 1.74,-2.94l2.28 0.39c-0.15,1.79 -1.1,3.31 -2.84,4.57zm11.03 -13.83l-3.55 4.19 0.94 2.8 -1.89 2.22 -4.05 -13.45 1.74 -2.06 10.86 5.42 -1.77 2.08 -2.29 -1.21zm-1.87 -0.99l-4.11 -2.18 1.67 5.06 2.44 -2.88zm-0.48 -11.17l2.27 -4.38c0.55,-1.07 1.21,-1.89 1.96,-2.48 0.75,-0.59 1.57,-0.92 2.44,-0.99 0.87,-0.07 1.75,0.12 2.64,0.58 1.22,0.63 2.14,1.46 2.78,2.49 0.64,1.03 0.95,2.16 0.95,3.4 -0.01,1.24 -0.34,2.51 -1.01,3.79l-2.65 5.11 -9.38 -7.52zm10.08 1.31c0.42,-0.82 0.62,-1.62 0.59,-2.4 -0.03,-0.78 -0.27,-1.49 -0.7,-2.12 -0.44,-0.63 -1.03,-1.14 -1.79,-1.54 -0.79,-0.41 -1.53,-0.47 -2.24,-0.2 -0.71,0.28 -1.31,0.9 -1.81,1.87l-1.08 2.08 5.81 4.67 1.23 -2.36zm-1.43 -16.23l2.38 1.08 1.25 -5.33 1.97 0.89 -1.25 5.35 2.53 1.15 1.47 -6.26 2.03 0.94 -2.09 8.89 -10.94 -4.99 2.04 -8.67 2.03 0.94 -1.41 6.02zm-0.45 -23l11.87 1.91 0.09 2.56 -7.05 -1.13 5.92 4.28 0.04 1.21 -5.74 2.64 7.12 1.16 0.09 2.56 -11.87 -1.93 -0.08 -2.22 7.23 -3.21 -7.55 -5.49 -0.09 -2.34zm5.56 -9.56l4.16 -0.31 0.73 2.63 -4.28 0.33 -6.5 4.95 -0.73 -2.63 4.5 -3.43 -6.19 -2.67 -0.75 -2.71 9.05 3.85z"/>
   <path class="fil0" d="M76.3 123.58c0.9,-0.18 1.77,0.4 1.96,1.29 0.18,0.9 -0.4,1.77 -1.29,1.96 -2.12,0.44 -4.27,0.76 -6.42,0.98 -2.18,0.22 -4.34,0.33 -6.48,0.33 -17.69,0 -33.71,-7.17 -45.31,-18.77 -11.6,-11.6 -18.77,-27.61 -18.77,-45.31 0,-17.69 7.17,-33.71 18.77,-45.31 11.6,-11.6 27.61,-18.77 45.31,-18.77 12.45,0 24.35,3.61 34.45,10.05 10.1,6.44 18.39,15.7 23.65,26.99 0.39,0.83 0.03,1.82 -0.81,2.21 -0.83,0.39 -1.82,0.03 -2.21,-0.81 -4.99,-10.72 -12.85,-19.5 -22.41,-25.6 -9.56,-6.1 -20.84,-9.52 -32.66,-9.52 -16.77,0 -31.96,6.8 -42.95,17.79 -10.99,10.99 -17.79,26.18 -17.79,42.95 0,16.77 6.8,31.96 17.79,42.95 10.99,10.99 26.18,17.79 42.95,17.79 2.09,0 4.14,-0.1 6.15,-0.31 2.04,-0.21 4.07,-0.52 6.08,-0.93z"/>
   <g>
    <path class="fil1" d="M83.01 79.7c-0.04,0.52 -0.06,1 -0.06,1.43 0,1.08 0.12,1.93 0.35,2.55 0.52,1.26 1.76,1.92 3.75,1.97 0.15,0 0.79,0 1.89,0 1.11,0 3.27,-0.12 6.49,-0.35l-0.77 4.95c-1.36,0.49 -2.7,0.8 -4.02,0.95 -1.31,0.14 -2.54,0.21 -3.69,0.21 -1.15,0 -1.98,0 -2.49,0 -1.75,-0.03 -3.21,-0.42 -4.39,-1.2 -1.17,-0.77 -2.02,-1.84 -2.53,-3.21 -0.64,-1.7 -0.97,-3.52 -0.97,-5.45 0,-0.61 0.02,-1.23 0.05,-1.85l6.39 0z"/>
    <path class="fil1" d="M80.63 65.97c0.93,-1.17 2.07,-2.03 3.44,-2.57 1.37,-0.54 3.09,-0.81 5.18,-0.81 2.09,0 3.81,0.1 5.16,0.31 1.35,0.21 2.81,0.59 4.39,1.16l-0.81 4.95c-3.53,-0.44 -6.21,-0.66 -8.04,-0.66 -0.03,0 -0.06,0 -0.1,0 -0.04,0 -0.18,0 -0.42,0 -0.24,0 -0.47,0.01 -0.68,0.02 -0.21,0.01 -0.49,0.05 -0.85,0.1 -0.36,0.05 -0.64,0.12 -0.83,0.21 -0.19,0.09 -0.44,0.24 -0.73,0.44 -0.3,0.21 -0.53,0.45 -0.71,0.73 -0.18,0.28 -0.39,0.64 -0.64,1.08 -0.24,0.44 -0.44,0.94 -0.6,1.51 -0.19,0.66 -0.37,1.34 -0.53,2.05l-6.57 0c0.31,-1.59 0.68,-3.04 1.13,-4.35 0.55,-1.61 1.29,-3 2.22,-4.17z"/>
    <path class="fil1" d="M34.93 63.9c0.72,-0.39 1.44,-0.65 2.14,-0.79 0.71,-0.14 1.29,-0.21 1.76,-0.21 0.46,0 0.72,0 0.77,0 5.69,0.1 9.65,0.31 11.86,0.62l-0.85 5.29 -10.2 0c-1.26,0 -2.01,0.5 -2.24,1.51 -0.03,0.15 -0.06,0.37 -0.12,0.66l-0.46 3.09 10.28 0.42 -0.85 5.22 -10.39 0.35 -0.54 3.32c-0.15,0.98 0.03,1.57 0.54,1.78 0.39,0.15 0.9,0.23 1.55,0.23l9.85 0 -0.85 5.25c-1.83,0.23 -4.98,0.42 -9.47,0.58l-2.24 0.08c-0.13,0 -0.34,0 -0.64,0 -0.3,0 -0.7,-0.04 -1.22,-0.12 -0.51,-0.08 -1.08,-0.26 -1.7,-0.54 -1.7,-0.8 -2.55,-2.24 -2.55,-4.33 0,-0.41 0.03,-0.85 0.08,-1.31l2.59 -16.23c0.39,-2.45 1.35,-4.07 2.9,-4.87z"/>
    <polygon class="fil2" points="52.72,75.9 83.62,75.9 83.24,78.28 52.34,78.28 "/>
    <path class="fil3" d="M66.52 62.93c1.54,0 2.86,0.28 3.95,0.85 1.09,0.57 1.94,1.31 2.53,2.24 1.05,1.72 1.58,4.06 1.58,7.02 0,1.44 -0.14,3.11 -0.42,5.02 -0.98,6.4 -2.96,10.39 -5.94,11.96 -1.49,0.77 -3.38,1.16 -5.67,1.16l-12.27 0 1.82 -11.47 6.31 0 -0.95 6 4.94 0c1.49,0 2.66,-0.71 3.51,-2.12 0.85,-1.41 1.5,-3.56 1.97,-6.44 0.28,-2.11 0.42,-3.67 0.42,-4.69 0,-1.02 -0.15,-1.83 -0.44,-2.43 -0.3,-0.6 -0.68,-1.02 -1.16,-1.25 -0.48,-0.23 -1.09,-0.35 -1.83,-0.35l-4.67 0 -0.96 6.07 -6.31 0 1.83 -11.55c0,0 3.92,0 11.77,0z"/>
   </g>
   <g>
    <path class="fil4" d="M27.63 43l12.33 -5.24 0 8.43 -12.33 -3.2zm22.58 14.97c0.81,-1.87 2,-3.09 3.64,-3.85 3.93,-0.39 7.32,-0.76 10.23,-0.95 2.9,0.19 6.29,0.56 10.22,0.95 1.64,0.76 2.83,1.99 3.64,3.85 0,-3.74 0,-9.17 0,-12.91 -3.03,-3.74 -8.24,-5.72 -13.53,-5.79l-0.06 -0c-0.09,-0 -0.18,-0 -0.28,-0 -0.09,-0 -0.18,-0 -0.28,0l-0.06 0c-5.29,0.08 -10.5,2.05 -13.53,5.79 0,3.74 0,9.17 0,12.91zm-7.85 -21.43l21.71 -9.01 36.44 15.47 -20.15 5.23 0 -3.51 -0.27 -0.75c-0.67,-0.79 -1.43,-1.53 -2.26,-2.2 -3.83,-3.1 -8.98,-4.58 -14.04,-4.53 -5.07,0.05 -10.11,1.65 -13.7,4.68 -0.74,0.62 -1.43,1.32 -2.04,2.08l-0.26 0.73 0 3.51 -5.42 -1.6 0 -10.09z"/>
    <path class="fil5" d="M41.76 48.63l0 -13.09c0,-0.45 0.33,-0.83 0.78,-0.89l5.64 -0.72 -4.63 1.82 0 11.38 0 0.63 0 0.88c0.41,0.29 0.69,0.76 0.69,1.3 0,0.58 -0.32,1.09 -0.79,1.36 0.24,0.12 0.48,0.29 0.69,0.52l0.55 5.15c-0.56,0.45 -1.27,0.71 -2.03,0.71 -0.77,0 -1.47,-0.27 -2.03,-0.71l0.55 -5.15c0.21,-0.23 0.44,-0.4 0.69,-0.52 -0.47,-0.28 -0.78,-0.78 -0.78,-1.36 0,-0.54 0.28,-1.02 0.69,-1.31z"/>
   </g>
  </g>
 </g>
</svg>
