<?xml version="1.0" encoding="UTF-8"?>
<!DOCTYPE svg PUBLIC "-//W3C//DTD SVG 1.1//EN" "http://www.w3.org/Graphics/SVG/1.1/DTD/svg11.dtd">
<!-- Creator: CorelDRAW 2018 (64 Bit) -->
<svg xmlns="http://www.w3.org/2000/svg" xml:space="preserve" width="296px" height="42px" version="1.1" style="shape-rendering:geometricPrecision; text-rendering:geometricPrecision; image-rendering:optimizeQuality; fill-rule:evenodd; clip-rule:evenodd"
viewBox="0 0 7.215 1.034"
 xmlns:xlink="http://www.w3.org/1999/xlink">
 <defs>
  <style type="text/css">
   <![CDATA[
    .fil0 {fill:white}
    .fil2 {fill:white;fill-rule:nonzero}
    .fil1 {fill:white;fill-opacity:0.501961}
   ]]>
  </style>
 </defs>
 <g id="Camada_x0020_1">
  <metadata id="CorelCorpID_0Corel-Layer"/>
  <g id="_2663033164016">
   <g>
    <path class="fil0" d="M1.016 0.067c0.018,-0.023 0.041,-0.04 0.068,-0.051 0.027,-0.011 0.061,-0.016 0.103,-0.016 0.041,0 0.075,0.002 0.102,0.006 0.027,0.004 0.056,0.012 0.087,0.023l-0.016 0.098c-0.07,-0.009 -0.123,-0.013 -0.159,-0.013 -0.001,0 -0.002,0 -0.002,0 -0.001,0 -0.004,0 -0.009,0 -0.005,0 -0.009,0 -0.013,0 -0.004,0.001 -0.01,0.001 -0.017,0.002 -0.007,0.001 -0.013,0.003 -0.017,0.005 -0.003,0.001 -0.008,0.004 -0.014,0.008 -0.006,0.004 -0.011,0.009 -0.014,0.015 -0.004,0.006 -0.008,0.013 -0.013,0.021 -0.005,0.009 -0.009,0.019 -0.012,0.03 -0.004,0.013 -0.007,0.027 -0.01,0.041l-0.13 0c0.006,-0.032 0.013,-0.06 0.022,-0.086 0.011,-0.032 0.026,-0.06 0.044,-0.083z"/>
    <path class="fil0" d="M1.063 0.339c-0.001,0.011 -0.001,0.02 -0.001,0.029 0,0.021 0.002,0.038 0.007,0.05 0.01,0.025 0.035,0.038 0.074,0.039 0.003,0 0.016,0 0.038,0 0.022,0 0.064,-0.002 0.128,-0.007l-0.015 0.098c-0.027,0.01 -0.054,0.016 -0.08,0.019 -0.026,0.003 -0.05,0.004 -0.073,0.004 -0.047,0 -0.094,0.004 -0.136,-0.024 -0.023,-0.015 -0.04,-0.036 -0.05,-0.063 -0.013,-0.034 -0.019,-0.07 -0.019,-0.108 0,-0.012 0,-0.024 0.001,-0.037l0.126 0zm-0.327 -0.332c0.031,0 0.057,0.005 0.079,0.017 0.021,0.011 0.038,0.026 0.05,0.044 0.021,0.034 0.031,0.081 0.031,0.139 0,0.029 -0.003,0.062 -0.008,0.1 -0.02,0.127 -0.059,0.206 -0.118,0.237 -0.03,0.015 -0.067,0.023 -0.112,0.023l-0.244 0 0.036 -0.228 0.125 0 -0.018 0.119 0.098 0c0.029,0 0.052,-0.014 0.069,-0.042 0.017,-0.028 0.03,-0.071 0.039,-0.128 0.006,-0.042 0.009,-0.073 0.009,-0.093 0,-0.02 -0.003,-0.036 -0.009,-0.048 -0.006,-0.012 -0.014,-0.02 -0.023,-0.025 -0.01,-0.004 -0.022,-0.007 -0.037,-0.007l-0.092 0 -0.019 0.121 -0.125 0 0.036 -0.229c0,0 0.078,0 0.233,0zm-0.626 0.019c0.015,-0.008 0.029,-0.013 0.043,-0.016 0.014,-0.002 0.025,-0.004 0.035,-0.004 0.009,0 0.014,0 0.015,0 0.113,0.002 0.191,0.006 0.235,0.012l-0.017 0.105 -0.202 0c-0.025,0 -0.04,0.01 -0.044,0.03 -0.001,0.003 -0.002,0.008 -0.003,0.013l-0.009 0.061 0.204 0.009 -0.017 0.103 -0.206 0.007 -0.011 0.066c-0.003,0.019 0.001,0.031 0.011,0.035 0.008,0.003 0.018,0.005 0.031,0.005l0.195 0 -0.017 0.104c-0.036,0.004 -0.099,0.008 -0.188,0.011 -0.019,0.001 -0.038,0.002 -0.057,0.002 -0.02,0 -0.039,-0.005 -0.057,-0.013 -0.034,-0.016 -0.051,-0.045 -0.051,-0.086 0,-0.008 0.001,-0.017 0.002,-0.026l0.051 -0.321c0.007,-0.049 0.027,-0.081 0.057,-0.097z"/>
    <path class="fil1" d="M0.463 0.264l0.303 0c-0.001,0.008 -0.002,0.016 -0.003,0.024 -0.001,0.008 -0.003,0.016 -0.004,0.023l-0.304 0 0.008 -0.047zm0.43 0l0.182 0 -0.007 0.047 -0.181 0c0,-0.001 0.001,-0.003 0.001,-0.004 0.002,-0.015 0.004,-0.03 0.005,-0.043z"/>
   </g>
   <path class="fil2" d="M1.416 1.034c-0.015,0 -0.029,-0.003 -0.041,-0.009 -0.011,-0.006 -0.02,-0.014 -0.027,-0.024 -0.006,-0.011 -0.009,-0.023 -0.009,-0.036 0,-0.018 0.004,-0.035 0.012,-0.049 0.009,-0.014 0.02,-0.026 0.035,-0.034 0.015,-0.008 0.032,-0.013 0.051,-0.013 0.016,0 0.03,0.003 0.042,0.009 0.011,0.006 0.02,0.014 0.026,0.024 0.007,0.011 0.01,0.023 0.01,0.036 0,0.018 -0.004,0.034 -0.013,0.049 -0.008,0.014 -0.02,0.026 -0.034,0.034 -0.015,0.008 -0.032,0.013 -0.052,0.013zm0.004 -0.032c0.011,0 0.021,-0.003 0.03,-0.008 0.009,-0.006 0.016,-0.013 0.02,-0.023 0.005,-0.009 0.007,-0.019 0.007,-0.031 0,-0.012 -0.003,-0.021 -0.011,-0.029 -0.007,-0.007 -0.018,-0.01 -0.032,-0.01 -0.012,0 -0.022,0.002 -0.03,0.008 -0.009,0.006 -0.016,0.013 -0.021,0.022 -0.004,0.01 -0.007,0.02 -0.007,0.032 0,0.012 0.004,0.021 0.012,0.028 0.007,0.008 0.018,0.011 0.032,0.011zm0.221 0.032c-0.02,0 -0.036,-0.005 -0.047,-0.015 -0.011,-0.01 -0.017,-0.024 -0.017,-0.041 0,-0.005 0.001,-0.011 0.002,-0.017l0.017 -0.089 0.037 0 -0.017 0.088c-0.001,0.005 -0.002,0.01 -0.002,0.014 0,0.009 0.003,0.016 0.008,0.021 0.005,0.005 0.013,0.007 0.023,0.007 0.011,0 0.02,-0.003 0.027,-0.01 0.006,-0.006 0.011,-0.017 0.014,-0.032l0.018 -0.088 0.036 0 -0.018 0.091c-0.01,0.047 -0.037,0.071 -0.081,0.071zm0.2 -0.132l-0.051 0 0.006 -0.03 0.139 0 -0.006 0.03 -0.051 0 -0.026 0.129 -0.037 0 0.026 -0.129zm0.176 0.132c-0.012,0 -0.024,-0.002 -0.036,-0.005 -0.011,-0.004 -0.02,-0.008 -0.027,-0.013l0.015 -0.029c0.007,0.006 0.015,0.01 0.024,0.013 0.009,0.003 0.019,0.004 0.028,0.004 0.01,0 0.018,-0.002 0.024,-0.005 0.006,-0.003 0.009,-0.008 0.009,-0.014 0,-0.004 -0.002,-0.008 -0.007,-0.01 -0.005,-0.003 -0.012,-0.005 -0.023,-0.008 -0.01,-0.003 -0.018,-0.006 -0.025,-0.009 -0.006,-0.003 -0.012,-0.007 -0.017,-0.013 -0.004,-0.005 -0.007,-0.013 -0.007,-0.022 0,-0.011 0.003,-0.02 0.009,-0.028 0.006,-0.008 0.015,-0.015 0.026,-0.019 0.011,-0.004 0.023,-0.007 0.038,-0.007 0.011,0 0.021,0.002 0.03,0.004 0.01,0.002 0.018,0.006 0.025,0.01l-0.014 0.028c-0.006,-0.004 -0.013,-0.007 -0.02,-0.009 -0.007,-0.002 -0.015,-0.003 -0.023,-0.003 -0.011,0 -0.019,0.002 -0.025,0.005 -0.006,0.004 -0.009,0.009 -0.009,0.014 0,0.004 0.001,0.007 0.004,0.009 0.002,0.002 0.006,0.004 0.01,0.006 0.004,0.001 0.009,0.003 0.016,0.005 0.01,0.003 0.019,0.005 0.025,0.008 0.007,0.003 0.012,0.007 0.017,0.012 0.004,0.006 0.007,0.013 0.007,0.022 0,0.01 -0.003,0.02 -0.009,0.028 -0.006,0.008 -0.015,0.014 -0.026,0.019 -0.011,0.004 -0.024,0.007 -0.039,0.007zm0.213 0c-0.016,0 -0.03,-0.003 -0.042,-0.009 -0.011,-0.006 -0.02,-0.014 -0.026,-0.024 -0.007,-0.011 -0.01,-0.023 -0.01,-0.036 0,-0.018 0.004,-0.035 0.013,-0.049 0.008,-0.014 0.02,-0.026 0.034,-0.034 0.015,-0.008 0.032,-0.013 0.052,-0.013 0.015,0 0.029,0.003 0.041,0.009 0.011,0.006 0.02,0.014 0.027,0.024 0.006,0.011 0.009,0.023 0.009,0.036 0,0.018 -0.004,0.034 -0.013,0.049 -0.008,0.014 -0.019,0.026 -0.034,0.034 -0.015,0.008 -0.032,0.013 -0.051,0.013zm0.003 -0.032c0.011,0 0.022,-0.003 0.03,-0.008 0.009,-0.006 0.016,-0.013 0.021,-0.023 0.004,-0.009 0.007,-0.019 0.007,-0.031 0,-0.012 -0.004,-0.021 -0.012,-0.029 -0.007,-0.007 -0.018,-0.01 -0.032,-0.01 -0.011,0 -0.021,0.002 -0.03,0.008 -0.009,0.006 -0.016,0.013 -0.02,0.022 -0.005,0.01 -0.007,0.02 -0.007,0.032 0,0.012 0.003,0.021 0.011,0.028 0.007,0.008 0.018,0.011 0.032,0.011zm0.221 0.032c-0.02,0 -0.035,-0.005 -0.047,-0.015 -0.011,-0.01 -0.017,-0.024 -0.017,-0.041 0,-0.005 0.001,-0.011 0.002,-0.017l0.018 -0.089 0.037 0 -0.018 0.088c-0.001,0.005 -0.001,0.01 -0.001,0.014 0,0.009 0.002,0.016 0.007,0.021 0.006,0.005 0.013,0.007 0.023,0.007 0.011,0 0.02,-0.003 0.027,-0.01 0.007,-0.006 0.011,-0.017 0.014,-0.032l0.018 -0.088 0.036 0 -0.018 0.091c-0.009,0.047 -0.036,0.071 -0.081,0.071zm0.303 -0.113c0,0.015 -0.004,0.028 -0.012,0.038 -0.008,0.011 -0.019,0.018 -0.033,0.023l0.027 0.049 -0.038 0 -0.025 -0.045 -0.032 0 -0.009 0.045 -0.036 0 0.031 -0.159 0.065 0c0.02,0 0.035,0.004 0.046,0.013 0.011,0.009 0.016,0.021 0.016,0.036zm-0.076 0.036c0.013,0 0.022,-0.003 0.029,-0.008 0.006,-0.006 0.01,-0.014 0.01,-0.024 0,-0.008 -0.003,-0.014 -0.008,-0.017 -0.005,-0.004 -0.012,-0.006 -0.022,-0.006l-0.029 0 -0.011 0.055 0.031 0zm0.208 0.077c-0.016,0 -0.03,-0.003 -0.041,-0.009 -0.012,-0.006 -0.021,-0.014 -0.028,-0.024 -0.006,-0.011 -0.009,-0.023 -0.009,-0.036 0,-0.018 0.004,-0.035 0.012,-0.049 0.008,-0.014 0.02,-0.026 0.035,-0.034 0.015,-0.008 0.032,-0.013 0.051,-0.013 0.015,0 0.027,0.003 0.038,0.008 0.011,0.004 0.019,0.011 0.025,0.02l-0.027 0.022c-0.008,-0.012 -0.021,-0.018 -0.038,-0.018 -0.012,0 -0.022,0.002 -0.031,0.008 -0.009,0.005 -0.016,0.013 -0.021,0.022 -0.005,0.009 -0.007,0.02 -0.007,0.031 0,0.013 0.004,0.022 0.012,0.029 0.007,0.008 0.018,0.011 0.032,0.011 0.017,0 0.031,-0.006 0.043,-0.018l0.021 0.022c-0.015,0.018 -0.038,0.028 -0.067,0.028zm0.155 -0.162l0.037 0 -0.032 0.159 -0.037 0 0.032 -0.159zm0.261 0l-0.032 0.159 -0.03 0 -0.059 -0.1 -0.02 0.1 -0.037 0 0.032 -0.159 0.031 0 0.059 0.1 0.019 -0.1 0.037 0zm0.17 0.077l0.034 0 -0.014 0.065c-0.008,0.006 -0.017,0.011 -0.027,0.015 -0.011,0.003 -0.022,0.005 -0.033,0.005 -0.016,0 -0.03,-0.003 -0.042,-0.009 -0.012,-0.006 -0.021,-0.014 -0.027,-0.024 -0.007,-0.011 -0.01,-0.023 -0.01,-0.036 0,-0.018 0.004,-0.035 0.013,-0.049 0.008,-0.015 0.02,-0.026 0.035,-0.034 0.015,-0.009 0.032,-0.013 0.052,-0.013 0.015,0 0.028,0.003 0.039,0.007 0.011,0.005 0.02,0.012 0.027,0.021l-0.026 0.021c-0.005,-0.006 -0.011,-0.01 -0.018,-0.013 -0.007,-0.003 -0.015,-0.004 -0.024,-0.004 -0.012,0 -0.022,0.002 -0.032,0.008 -0.009,0.005 -0.016,0.012 -0.021,0.022 -0.005,0.009 -0.008,0.02 -0.008,0.031 0,0.013 0.004,0.022 0.012,0.029 0.008,0.008 0.02,0.011 0.034,0.011 0.01,0 0.019,-0.002 0.027,-0.005l0.009 -0.048zm0.282 -0.047l-0.007 0.034 0.074 0 -0.006 0.029 -0.073 0 -0.008 0.036 0.087 0 -0.006 0.03 -0.123 0 0.032 -0.159 0.12 0 -0.007 0.03 -0.083 0zm0.186 0.132c-0.013,0 -0.025,-0.002 -0.036,-0.005 -0.012,-0.004 -0.021,-0.008 -0.028,-0.013l0.015 -0.029c0.007,0.006 0.016,0.01 0.025,0.013 0.009,0.003 0.018,0.004 0.028,0.004 0.01,0 0.018,-0.002 0.024,-0.005 0.005,-0.003 0.008,-0.008 0.008,-0.014 0,-0.004 -0.002,-0.008 -0.007,-0.01 -0.004,-0.003 -0.012,-0.005 -0.022,-0.008 -0.01,-0.003 -0.019,-0.006 -0.025,-0.009 -0.007,-0.003 -0.012,-0.007 -0.017,-0.013 -0.005,-0.005 -0.007,-0.013 -0.007,-0.022 0,-0.011 0.003,-0.02 0.009,-0.028 0.006,-0.008 0.014,-0.015 0.025,-0.019 0.011,-0.004 0.024,-0.007 0.038,-0.007 0.011,0 0.021,0.002 0.031,0.004 0.009,0.002 0.017,0.006 0.024,0.01l-0.014 0.028c-0.006,-0.004 -0.012,-0.007 -0.02,-0.009 -0.007,-0.002 -0.015,-0.003 -0.023,-0.003 -0.01,0 -0.018,0.002 -0.024,0.005 -0.006,0.004 -0.01,0.009 -0.01,0.014 0,0.004 0.002,0.007 0.004,0.009 0.003,0.002 0.006,0.004 0.01,0.006 0.004,0.001 0.01,0.003 0.017,0.005 0.01,0.003 0.018,0.005 0.025,0.008 0.006,0.003 0.012,0.007 0.016,0.012 0.005,0.006 0.007,0.013 0.007,0.022 0,0.01 -0.003,0.02 -0.009,0.028 -0.006,0.008 -0.014,0.014 -0.026,0.019 -0.011,0.004 -0.023,0.007 -0.038,0.007zm0.226 -0.162c0.02,0 0.035,0.004 0.046,0.013 0.01,0.009 0.016,0.021 0.016,0.037 0,0.013 -0.003,0.024 -0.01,0.034 -0.006,0.01 -0.015,0.018 -0.026,0.023 -0.012,0.005 -0.025,0.008 -0.041,0.008l-0.036 0 -0.008 0.044 -0.037 0 0.032 -0.159 0.064 0zm-0.014 0.085c0.013,0 0.022,-0.003 0.029,-0.008 0.006,-0.006 0.01,-0.014 0.01,-0.024 0,-0.008 -0.003,-0.014 -0.008,-0.017 -0.005,-0.004 -0.012,-0.006 -0.022,-0.006l-0.029 0 -0.011 0.055 0.031 0zm0.184 -0.055l-0.006 0.034 0.073 0 -0.005 0.029 -0.074 0 -0.007 0.036 0.086 0 -0.006 0.03 -0.123 0 0.032 -0.159 0.12 0 -0.006 0.03 -0.084 0zm0.214 0.132c-0.016,0 -0.03,-0.003 -0.042,-0.009 -0.012,-0.006 -0.021,-0.014 -0.027,-0.024 -0.006,-0.011 -0.01,-0.023 -0.01,-0.036 0,-0.018 0.004,-0.035 0.013,-0.049 0.008,-0.014 0.02,-0.026 0.035,-0.034 0.014,-0.008 0.032,-0.013 0.051,-0.013 0.014,0 0.027,0.003 0.038,0.008 0.01,0.004 0.019,0.011 0.024,0.02l-0.026 0.022c-0.009,-0.012 -0.021,-0.018 -0.039,-0.018 -0.011,0 -0.021,0.002 -0.03,0.008 -0.009,0.005 -0.016,0.013 -0.021,0.022 -0.005,0.009 -0.007,0.02 -0.007,0.031 0,0.013 0.003,0.022 0.011,0.029 0.008,0.008 0.019,0.011 0.033,0.011 0.017,0 0.031,-0.006 0.042,-0.018l0.022 0.022c-0.016,0.018 -0.038,0.028 -0.067,0.028zm0.155 -0.162l0.037 0 -0.032 0.159 -0.037 0 0.032 -0.159zm0.196 0.125l-0.074 0 -0.021 0.034 -0.039 0 0.103 -0.159 0.036 0 0.039 0.159 -0.037 0 -0.007 -0.034zm-0.006 -0.028l-0.014 -0.061 -0.037 0.061 0.051 0zm0.139 -0.097l0.037 0 -0.026 0.129 0.08 0 -0.006 0.03 -0.117 0 0.032 -0.159zm0.178 0l0.036 0 -0.031 0.159 -0.037 0 0.032 -0.159zm0.235 0.024l-0.107 0.105 0.089 0 -0.006 0.03 -0.139 0 0.005 -0.024 0.107 -0.105 -0.084 0 0.007 -0.03 0.133 0 -0.005 0.024zm0.153 0.101l-0.074 0 -0.02 0.034 -0.039 0 0.102 -0.159 0.037 0 0.039 0.159 -0.037 0 -0.008 -0.034zm-0.006 -0.028l-0.013 -0.061 -0.038 0.061 0.051 0zm0.139 -0.097l0.067 0c0.016,0 0.03,0.003 0.042,0.008 0.011,0.005 0.02,0.013 0.027,0.023 0.006,0.01 0.009,0.022 0.009,0.035 0,0.019 -0.004,0.035 -0.012,0.049 -0.009,0.014 -0.02,0.025 -0.035,0.032 -0.015,0.008 -0.032,0.012 -0.052,0.012l-0.077 0 0.031 -0.159zm0.047 0.129c0.013,0 0.024,-0.003 0.033,-0.008 0.009,-0.005 0.016,-0.013 0.021,-0.022 0.004,-0.009 0.007,-0.019 0.007,-0.031 0,-0.012 -0.004,-0.021 -0.012,-0.028 -0.007,-0.006 -0.019,-0.01 -0.033,-0.01l-0.032 0 -0.019 0.099 0.035 0zm0.232 0.033c-0.016,0 -0.03,-0.003 -0.041,-0.009 -0.012,-0.006 -0.021,-0.014 -0.027,-0.024 -0.006,-0.011 -0.01,-0.023 -0.01,-0.036 0,-0.018 0.005,-0.035 0.013,-0.049 0.008,-0.014 0.02,-0.026 0.035,-0.034 0.014,-0.008 0.031,-0.013 0.051,-0.013 0.016,0 0.029,0.003 0.041,0.009 0.012,0.006 0.021,0.014 0.027,0.024 0.006,0.011 0.009,0.023 0.009,0.036 0,0.018 -0.004,0.034 -0.012,0.049 -0.009,0.014 -0.02,0.026 -0.035,0.034 -0.015,0.008 -0.032,0.013 -0.051,0.013zm0.003 -0.032c0.012,0 0.022,-0.003 0.031,-0.008 0.008,-0.006 0.015,-0.013 0.02,-0.023 0.004,-0.009 0.007,-0.019 0.007,-0.031 0,-0.012 -0.004,-0.021 -0.012,-0.029 -0.007,-0.007 -0.018,-0.01 -0.031,-0.01 -0.012,0 -0.022,0.002 -0.031,0.008 -0.009,0.006 -0.016,0.013 -0.02,0.022 -0.005,0.01 -0.007,0.02 -0.007,0.032 0,0.012 0.003,0.021 0.011,0.028 0.008,0.008 0.018,0.011 0.032,0.011zm0.337 -0.1l-0.007 0.034 0.074 0 -0.006 0.029 -0.074 0 -0.007 0.036 0.087 0 -0.006 0.03 -0.123 0 0.032 -0.159 0.119 0 -0.006 0.03 -0.083 0zm0.392 0.047c0.007,0.003 0.012,0.007 0.016,0.012 0.004,0.005 0.005,0.012 0.005,0.02 0,0.016 -0.006,0.029 -0.019,0.037 -0.013,0.009 -0.03,0.013 -0.052,0.013l-0.083 0 0.032 -0.159 0.076 0c0.017,0 0.03,0.003 0.04,0.009 0.009,0.007 0.013,0.016 0.013,0.027 0,0.01 -0.002,0.018 -0.007,0.025 -0.005,0.007 -0.012,0.012 -0.021,0.016zm-0.071 -0.049l-0.007 0.037 0.037 0c0.01,0 0.018,-0.002 0.023,-0.006 0.005,-0.003 0.008,-0.009 0.008,-0.016 0,-0.01 -0.008,-0.015 -0.023,-0.015l-0.038 0zm0.023 0.103c0.011,0 0.019,-0.002 0.024,-0.006 0.006,-0.004 0.009,-0.009 0.009,-0.017 0,-0.011 -0.008,-0.016 -0.024,-0.016l-0.044 0 -0.008 0.039 0.043 0zm0.225 -0.131c0.02,0 0.035,0.004 0.046,0.013 0.01,0.009 0.016,0.021 0.016,0.037 0,0.013 -0.003,0.024 -0.01,0.034 -0.006,0.01 -0.015,0.018 -0.026,0.023 -0.012,0.005 -0.025,0.008 -0.041,0.008l-0.036 0 -0.008 0.044 -0.037 0 0.032 -0.159 0.064 0zm-0.014 0.085c0.013,0 0.022,-0.003 0.029,-0.008 0.006,-0.006 0.01,-0.014 0.01,-0.024 0,-0.008 -0.003,-0.014 -0.008,-0.017 -0.005,-0.004 -0.012,-0.006 -0.022,-0.006l-0.029 0 -0.011 0.055 0.031 0zm0.207 0.077c-0.016,0 -0.03,-0.003 -0.042,-0.009 -0.011,-0.006 -0.02,-0.014 -0.026,-0.024 -0.007,-0.011 -0.01,-0.023 -0.01,-0.036 0,-0.018 0.004,-0.035 0.013,-0.049 0.008,-0.014 0.02,-0.026 0.034,-0.034 0.015,-0.008 0.032,-0.013 0.052,-0.013 0.015,0 0.029,0.003 0.041,0.009 0.011,0.006 0.02,0.014 0.027,0.024 0.006,0.011 0.009,0.023 0.009,0.036 0,0.018 -0.004,0.034 -0.012,0.049 -0.009,0.014 -0.02,0.026 -0.035,0.034 -0.015,0.008 -0.032,0.013 -0.051,0.013zm0.003 -0.032c0.012,0 0.022,-0.003 0.03,-0.008 0.009,-0.006 0.016,-0.013 0.021,-0.023 0.004,-0.009 0.007,-0.019 0.007,-0.031 0,-0.012 -0.004,-0.021 -0.012,-0.029 -0.007,-0.007 -0.018,-0.01 -0.032,-0.01 -0.011,0 -0.021,0.002 -0.03,0.008 -0.009,0.006 -0.016,0.013 -0.02,0.022 -0.005,0.01 -0.007,0.02 -0.007,0.032 0,0.012 0.003,0.021 0.011,0.028 0.007,0.008 0.018,0.011 0.032,0.011z"/>
   <path class="fil2" d="M6.403 0.173c0,0.056 -0.015,0.102 -0.044,0.138 -0.03,0.036 -0.071,0.06 -0.124,0.072l0.103 0.184 -0.063 0 -0.098 -0.175c-0.006,0 -0.016,0.001 -0.029,0.001l-0.155 0 -0.035 0.174 -0.058 0 0.11 -0.549 0.197 0c0.062,0 0.11,0.014 0.145,0.041 0.034,0.027 0.051,0.065 0.051,0.114zm-3.235 -0.108c-0.055,0 -0.103,0.013 -0.145,0.037 -0.041,0.025 -0.074,0.058 -0.096,0.1 -0.023,0.041 -0.034,0.088 -0.034,0.138 0,0.055 0.017,0.099 0.053,0.131 0.035,0.032 0.086,0.049 0.152,0.049 0.053,0 0.099,-0.015 0.14,-0.043l0.037 -0.184 0 0 0.005 -0.025 0.581 0 -0.007 0.049 -0.529 0 -0.037 0.186c-0.025,0.022 -0.055,0.038 -0.09,0.05 -0.034,0.012 -0.069,0.018 -0.106,0.018 -0.053,0 -0.099,-0.009 -0.137,-0.028 -0.039,-0.019 -0.069,-0.045 -0.089,-0.08 -0.02,-0.034 -0.03,-0.074 -0.03,-0.12 0,-0.06 0.013,-0.115 0.041,-0.166 0.027,-0.05 0.066,-0.089 0.117,-0.119 0.05,-0.029 0.109,-0.044 0.176,-0.044 0.046,0 0.086,0.007 0.121,0.021 0.035,0.013 0.062,0.033 0.082,0.059l-0.04 0.035c-0.019,-0.022 -0.042,-0.038 -0.069,-0.048 -0.027,-0.01 -0.059,-0.016 -0.096,-0.016zm0.448 0.004l-0.03 0.149 -0.056 0 0.039 -0.2 0.376 0 -0.01 0.051 -0.319 0zm-0.059 0.298l-0.03 0.149 0.33 0 -0.01 0.051 -0.387 0 0.04 -0.2 0.057 0zm3.563 0.053l-0.307 0 -0.094 0.147 -0.063 0 0.36 -0.549 0.057 0 0.141 0.549 -0.058 0 -0.036 -0.147zm-0.011 -0.047l-0.075 -0.296 -0.191 0.296 0.266 0zm-0.513 -0.355l0.058 0 -0.11 0.549 -0.057 0 0.109 -0.549zm-0.902 0.402l-0.306 0 -0.095 0.147 -0.062 0 0.36 -0.549 0.057 0 0.141 0.549 -0.058 0 -0.037 -0.147zm-0.011 -0.047l-0.074 -0.296 -0.191 0.296 0.265 0zm-0.455 -0.355l-0.11 0.549 -0.057 0 0.05 -0.253 -0.343 0 -0.05 0.253 -0.057 0 0.11 -0.549 0.057 0 -0.049 0.244 0.343 0 0.049 -0.244 0.057 0zm-0.657 0l-0.11 0.549 -0.047 0 -0.262 -0.455 -0.091 0.455 -0.057 0 0.11 -0.549 0.047 0 0.262 0.455 0.091 -0.455 0.057 0zm-1.827 0l-0.11 0.549 -0.047 0 -0.262 -0.455 -0.091 0.455 -0.057 0 0.11 -0.549 0.047 0 0.262 0.455 0.091 -0.455 0.057 0zm-0.955 0.051l-0.039 0.195 0.284 0 -0.009 0.049 -0.284 0 -0.041 0.203 0.33 0 -0.011 0.051 -0.386 0 0.109 -0.549 0.376 0 -0.01 0.051 -0.319 0zm4.361 0.274c0.063,0 0.111,-0.014 0.144,-0.042 0.034,-0.028 0.051,-0.068 0.051,-0.122 0,-0.036 -0.012,-0.063 -0.037,-0.082 -0.024,-0.019 -0.059,-0.028 -0.105,-0.028l-0.145 0 -0.056 0.274 0.148 0z"/>
  </g>
 </g>
</svg>
