<?xml version="1.0" encoding="UTF-8"?>
<!DOCTYPE svg PUBLIC "-//W3C//DTD SVG 1.1//EN" "http://www.w3.org/Graphics/SVG/1.1/DTD/svg11.dtd">
<!-- Creator: CorelDRAW 2018 (64 Bit) -->
<svg xmlns="http://www.w3.org/2000/svg" xml:space="preserve" width="26px" height="26px" version="1.1" style="shape-rendering:geometricPrecision; text-rendering:geometricPrecision; image-rendering:optimizeQuality; fill-rule:evenodd; clip-rule:evenodd"
viewBox="0 0 0.052 0.052"
 xmlns:xlink="http://www.w3.org/1999/xlink">
 <defs>
  <style type="text/css">
   <![CDATA[
    .fil0 {fill:#76C04E}
    .fil1 {fill:white}
   ]]>
  </style>
 </defs>
 <g id="Camada_x0020_1">
  <metadata id="CorelCorpID_0Corel-Layer"/>
  <g id="_2663033190480">
   <rect class="fil0" transform="matrix(0.384571 -0.384569 0.384571 0.384569 -0.00182294 0.0262214)" width="0.073" height="0.073" rx="0.008" ry="0.008"/>
   <g>
    <rect class="fil1" transform="matrix(0.165198 0.165198 -0.151433 0.151433 0.0374927 0.0241962)" width="0.012" height="0.074"/>
    <rect class="fil1" transform="matrix(0.165198 -0.165198 0.151433 0.151433 0.0263537 0.0171076)" width="0.012" height="0.074"/>
   </g>
  </g>
 </g>
</svg>
